<svg id="noun_Bell_2184300" xmlns="http://www.w3.org/2000/svg" width="20.16" height="25.063" viewBox="0 0 20.16 25.063">
  <g id="Group_84" data-name="Group 84">
    <path id="Path_108" data-name="Path 108" d="M19.771,18.807c-3.186-4.657-2.778-3.513-2.778-9.15a7.1,7.1,0,0,0-5.719-6.945V1.159a1.389,1.389,0,1,0-2.778,0V2.712A7.1,7.1,0,0,0,2.859,9.656c0,5.719.409,4.412-2.778,9.15a1.342,1.342,0,0,0,1.144,2.124H18.546A1.4,1.4,0,0,0,19.771,18.807ZM6.863,21.748c0,4.248,6.291,3.922,6.128,0Z" transform="translate(0.178 0.25)" fill="#545454" fill-rule="evenodd"/>
  </g>
</svg>
