<svg xmlns="http://www.w3.org/2000/svg" width="9.635" height="9.797" viewBox="0 0 9.635 9.797">
  <g id="noun_edit_3567518" transform="translate(-21.625 -20.776)">
    <path id="Path_125" data-name="Path 125" d="M94.828,21.115a1.134,1.134,0,0,0-1.618,0l-.49.5,1.994,2.031.516-.526a1.139,1.139,0,0,0,0-1.592Z" transform="translate(-64.296)"/>
    <path id="Path_126" data-name="Path 126" d="M22.39,38.273l-.765,2.813,2.755-.777,5.77-5.877L28.156,32.4Z" transform="translate(0 -10.512)" fill="#343434"/>
  </g>
</svg>
