<svg xmlns="http://www.w3.org/2000/svg" width="38.946" height="36.191" viewBox="0 0 38.946 36.191">
  <g id="Group_103" data-name="Group 103" transform="translate(-10.318 -13.124)">
    <path id="Path_220" data-name="Path 220" d="M50.739,22.558h2.846a2.631,2.631,0,0,0,1.771,2.108,6.164,6.164,0,0,0,1.363.163,3.359,3.359,0,0,0,2.564-.963,2.128,2.128,0,0,0,2-2.037V20.176a2.15,2.15,0,0,0-2.187-2.055l-.007,0a10.377,10.377,0,0,0-1.2-.074,6.66,6.66,0,0,0-1.728.21,3.106,3.106,0,0,0-2.1-2.65,1.875,1.875,0,0,0,.1-.575,1.927,1.927,0,1,0-.464,1.233,2.372,2.372,0,0,1,1.75,2.242A3.538,3.538,0,0,0,54,19.638H50.739a1.46,1.46,0,1,0,0,2.92ZM52.255,16.2a1.169,1.169,0,1,1,1.169-1.169A1.17,1.17,0,0,1,52.255,16.2Zm8.291,3.978v1.653a1.37,1.37,0,0,1-1.134,1.283v-4.22A1.37,1.37,0,0,1,60.546,20.175Zm-9.807.2h3.452A.369.369,0,0,0,54.5,20.2c.331-.53,1.21-1.421,3.384-1.421.252,0,.516.012.79.036v4.622a2.735,2.735,0,0,1-1.957.656,5.429,5.429,0,0,1-1.192-.143,1.994,1.994,0,0,1-1.268-1.81.368.368,0,0,0-.365-.318H50.739a.724.724,0,1,1,0-1.447Z" transform="translate(-19.842)"/>
    <path id="Path_221" data-name="Path 221" d="M49.238,46.906a7.277,7.277,0,0,0-6.3-4.357c.016-1.311-.279-5.619-4.285-10.908a.371.371,0,0,0-.323-.144,8.613,8.613,0,0,1-2.55-.219,1.966,1.966,0,0,1-.414-.174.366.366,0,0,0-.4.033.369.369,0,0,0-.132.379c.915,3.709,2.111,10.411-.152,13.615a4.107,4.107,0,0,1-3.141,1.747,10.231,10.231,0,0,1-1.766.154,4.849,4.849,0,0,1-2.973-.794,6.046,6.046,0,0,0-.255-1.135c-.034-.1-.069-.194-.1-.286a5.958,5.958,0,0,0-.405-.909c.077-.773.565-5.118,2.03-7.544a.968.968,0,0,0-.847-1.466h0l-2.676.048v-10.6a.368.368,0,0,0-.368-.368H11.937a.368.368,0,0,0-.368.368V35.319a.368.368,0,0,0,.368.368H19.3a19.586,19.586,0,0,0-2.921,2.423c-.767-.1-3.175-.368-4.042.063a1.279,1.279,0,0,0-.749.9c-.141.74.386,1.772,1.6,3.145a22.416,22.416,0,0,0-2.87,7.936.347.347,0,0,0,0,.072.384.384,0,0,0,0,.067.358.358,0,0,0,.04.094.431.431,0,0,0,.02.047l.008.007s0,.009.006.012a.35.35,0,0,0,.08.061.4.4,0,0,0,.04.031.365.365,0,0,0,.16.038h3.461a4.461,4.461,0,0,0,8.912,0h13.9c.06,0,.126,0,.194.008.088,0,.18.01.269.01a1.367,1.367,0,0,0,.472-.07c.086-.031.794-.233,1.617-.467-.007.1-.016.209-.016.313a4.466,4.466,0,1,0,8.093-2.594l1.413-.388a.366.366,0,0,0,.244-.489ZM19.218,24.715a1.217,1.217,0,0,1-2.321,0Zm-6.913,0h3.836a1.95,1.95,0,0,0,3.832,0h3.836V34.951h-11.5Zm8.3,11.039,6.641-.119a.232.232,0,0,1,.2.351A20.307,20.307,0,0,0,25.4,43a5.762,5.762,0,0,0-2.531-1.656,7.867,7.867,0,0,0-3.151-.635c-2.18,0-4.924.868-7.16,4.34A19.7,19.7,0,0,1,20.6,35.754Zm-8.285,3.459c.03-.16.133-.27.353-.379a8.476,8.476,0,0,1,3.081-.055,21.314,21.314,0,0,0-2.156,2.791C12.371,40.145,12.263,39.486,12.315,39.213ZM18.6,54.108a3.736,3.736,0,0,1-3.725-3.524h1.308a2.426,2.426,0,0,0,4.837,0h1.3A3.736,3.736,0,0,1,18.6,54.108Zm-1.68-3.524h3.364a1.693,1.693,0,0,1-3.364,0Zm6.1-.736H11.181c2.226-6.926,5.856-8.4,8.539-8.4a7.31,7.31,0,0,1,2.872.579,4.975,4.975,0,0,1,2.747,2.139c0,.008.006.017.01.025a5.97,5.97,0,0,1,.5,1.139,4.765,4.765,0,0,1,.234,1.1.36.36,0,0,0,.026.108,9.852,9.852,0,0,1-.227,3.308Zm20.931,4.26a3.7,3.7,0,0,1-3.688-4.261l1.44-.409A2.441,2.441,0,1,0,45.362,48.4l1.451-.41a3.724,3.724,0,0,1-2.86,6.113Zm.316-5.394a1.7,1.7,0,1,1-2.02,1.665,1.685,1.685,0,0,1,.566-1.254l.4-.112Q43.755,48.856,44.269,48.713ZM46.919,47.2l-.077.023c-.272.076-1.161.327-2.285.645l-.4.112c-.369.1-.755.212-1.15.324l-.488.138c-.933.263-1.877.531-2.686.762l-.526.151c-1.2.343-1.6.456-1.678.486a1.55,1.55,0,0,1-.447.016c-.083,0-.162-.009-.235-.009H26.631a11.4,11.4,0,0,0,.237-2.684,6.078,6.078,0,0,0,2.908.6,10.51,10.51,0,0,0,1.874-.163,4.832,4.832,0,0,0,3.635-2.05c2.294-3.25,1.336-9.614.427-13.54a9.243,9.243,0,0,0,2.476.228c4.409,5.912,4.007,10.588,4,10.635a.368.368,0,0,0,.1.287.39.39,0,0,0,.278.118l.157,0A6.317,6.317,0,0,1,48.376,46.8Z" transform="translate(0 -5.528)"/>
  </g>
</svg>
