<svg xmlns="http://www.w3.org/2000/svg" width="9.335" height="18.669" viewBox="0 0 9.335 18.669">
  <path id="fb" d="M13.818,3.1h1.7V.131A22.008,22.008,0,0,0,13.039,0C10.582,0,8.9,1.546,8.9,4.386V7H6.187v3.318H8.9v8.35h3.325V10.32h2.6L15.238,7H12.223V4.715c0-.959.259-1.616,1.6-1.616Z" transform="translate(-6.187)" fill="#4a4b4a"/>
</svg>
