<svg xmlns="http://www.w3.org/2000/svg" width="107.448" height="65.069" viewBox="0 0 107.448 65.069">
  <g id="handle" transform="translate(-344 -1717)">
    <path id="Path_93" data-name="Path 93" d="M476.082,516.36c-2.113.51-1.543,2.985-1.543,5.96,0,7.106-1.1,5.394,17,5.394,3.382,0,28.784.2,29.8-.09,2.005-.57,1.358-3.99,1.358-5.96,0-7.138.936-5.379-16.954-5.379-3.585,0-28.4-.232-29.669.075" transform="translate(-100.898 1200.907)" fill="#fff" fill-rule="evenodd"/>
    <path id="Path_94" data-name="Path 94" d="M526.405,523.867h9.949c3.587,0,5.56-.141,8.167,1.652,5.079,3.49,4.116,8.441,4.116,15.819v39.773l3.71.051,0-47.256c0-7.966-5.643-13.847-13.368-13.847H526.405Z" transform="translate(-100.898 1200.907)" fill="#fff" fill-rule="evenodd"/>
    <path id="Path_95" data-name="Path 95" d="M444.9,581.162l3.71-.031c0-4.785-.261-46.9.13-49.381a9.251,9.251,0,0,1,3.892-6.158c2.815-1.848,4.383-1.726,8.091-1.725h10.116v-3.808c-6.269,0-15.062-1.016-19.766,2.013-6.35,4.091-6.173,9.479-6.173,15.55v43.54" transform="translate(-100.898 1200.907)" fill="#fff" fill-rule="evenodd"/>
  </g>
</svg>
