<svg xmlns="http://www.w3.org/2000/svg" width="15.131" height="16.39" viewBox="0 0 15.131 16.39">
  <g id="Group_88" data-name="Group 88" transform="translate(0.505 0.501)">
    <path id="Path_185" data-name="Path 185" d="M13.239,8.54c1.411-1.395,1.9-4.119,2.06-5.416a.582.582,0,0,0-.649-.649c-1.3.162-4.022.649-5.433,2.043C7.336,6.4,7.434,8.086,8.553,9.189,9.671,10.308,11.358,10.421,13.239,8.54Z" transform="translate(-7.501 -2.47)" fill="none" stroke="#fff" stroke-width="1"/>
    <path id="Path_186" data-name="Path 186" d="M61.808,16.553c-1.557-.211-2.968.73-3.308,3.373-.276,1.962.989,4.427,1.654,5.546a.575.575,0,0,0,.908.114c.924-.908,2.805-2.968,3.065-4.93C64.468,18.044,63.365,16.763,61.808,16.553Z" transform="translate(-50.076 -14.245)" fill="none" stroke="#fff" stroke-width="1"/>
    <path id="Path_187" data-name="Path 187" d="M12.486,59.131c-1.751-.941-4.508-.616-5.789-.389a.587.587,0,0,0-.438.811c.535,1.2,1.8,3.665,3.535,4.589,2.351,1.249,3.924.665,4.67-.73C15.211,62.033,14.822,60.379,12.486,59.131Z" transform="translate(-6.213 -49.507)" fill="none" stroke="#fff" stroke-width="1"/>
  </g>
</svg>
