<svg xmlns="http://www.w3.org/2000/svg" width="33.426" height="32.886" viewBox="0 0 33.426 32.886">
  <path id="Path_149" data-name="Path 149" d="M22.2-4.9c5.664-6.061,9.727,4.768,9.727,11.965s-.544,11.218-8.99,11.218S9.415,15.344,9.415,8.146,16.54,1.162,22.2-4.9Z" transform="matrix(0.588, 0.809, -0.809, 0.588, 9.258, -3.694)" fill="#d57a69"/>
</svg>
