{
  "styles": [
    {
      "output": "src/assets/primeng/datatable/css/primeng.datatable.min.css",
      "input": ["src/assets/primeng/datatable/css/primeng.datatable.css"]
    },
    {
      "output": "src/assets/primeng/datatable/css/primeng.datatable-rtl.min.css",
      "input": ["src/assets/primeng/datatable/css/primeng.datatable-rtl.css"]
    }
  ],
  "scripts": []
}
