<?xml version="1.0" encoding="utf-8"?>
<!-- Generator: Adobe Illustrator 19.0.0, SVG Export Plug-In . SVG Version: 6.00 Build 0)  -->
<svg version="1.1" id="Layer_1" xmlns="http://www.w3.org/2000/svg" xmlns:xlink="http://www.w3.org/1999/xlink" x="0px" y="0px"
	 viewBox="-199 323.8 195.1 195.1" style="enable-background:new -199 323.8 195.1 195.1;" xml:space="preserve">
<style type="text/css">
	.st0{fill:none;stroke:#A43D96;stroke-width:9;stroke-miterlimit:10;}
	.st1{fill:#A43D96;}
</style>
<title>zero-icon-1</title>
<circle id="XMLID_3_" class="st0" cx="-100.5" cy="421.6" r="89.5"/>
<g id="XMLID_5_">
	<path id="XMLID_2_" class="st1" d="M-113.9,450.7l-5.1,5c-4.4,4.4-11.6,4.4-16,0c-2.1-2.1-3.3-4.9-3.3-7.9c0-3,1.2-5.8,3.3-7.9
		l18.7-18.6c3.9-3.9,11.2-9.5,16.5-4.2c2.4,2.4,6.4,2.4,8.8,0c2.4-2.4,2.4-6.4,0-8.8c-9-9-22.4-7.3-34,4.2l-18.7,18.6
		c-4.5,4.5-7,10.4-7,16.7c0,6.3,2.5,12.2,7,16.7c4.6,4.6,10.7,6.9,16.8,6.9c6.1,0,12.1-2.3,16.8-6.9l5.1-5.1c2.4-2.4,2.5-6.4,0-8.8
		C-107.5,448.3-111.5,448.3-113.9,450.7L-113.9,450.7z"/>
	<path id="XMLID_1_" class="st1" d="M-57.2,378.6c-9.7-9.6-23.3-10.2-32.3-1.2l-6.3,6.3c-2.4,2.4-2.5,6.4,0,8.8
		c2.4,2.4,6.4,2.5,8.8,0l6.3-6.3c4.7-4.6,10.8-2.7,14.7,1.2c2.1,2.1,3.3,4.9,3.3,7.9c0,3-1.2,5.8-3.3,7.9l-20,19.8
		c-9.1,9.1-13.4,4.8-15.2,3c-2.4-2.4-6.4-2.4-8.8,0c-2.4,2.4-2.4,6.4,0,8.8c4.2,4.2,9,6.2,14,6.2c6.1,0,12.6-3.1,18.8-9.2l20-19.8
		c4.5-4.5,7-10.4,7-16.7C-50.2,389-52.7,383.1-57.2,378.6L-57.2,378.6z"/>
</g>
</svg>
