<svg xmlns="http://www.w3.org/2000/svg" width="47.708" height="60" viewBox="0 0 47.708 60">
  <path id="Path_20" data-name="Path 20" d="M53.9,80a30.218,30.218,0,0,1-5.1-60A29.515,29.515,0,0,0,41,40.1,30.173,30.173,0,0,0,71.2,70.3C73,70.4,62.8,80,53.9,80Z" transform="translate(-23.7 -20)" fill="#fff"/>
</svg>
