<svg width="288" height="200" viewBox="0 0 288 200" fill="none" xmlns="http://www.w3.org/2000/svg">
<path d="M20.8215 188.877H271.265C239.531 55.9072 48.402 54.984 20.8215 188.877Z" fill="#FFA800" fill-opacity="0.15" stroke="#FFA800" stroke-width="2.5"/>
<rect x="1.62817" y="188.983" width="284.743" height="9.76662" rx="4.88331" fill="#FFA800" fill-opacity="0.15" stroke="#FFA800" stroke-width="2.5"/>
<circle cx="143.999" cy="82.4448" r="5.11109" fill="#FFA800"/>
<path d="M53.7429 81.5952H237.544C214.254 -15.9912 73.9842 -16.6688 53.7429 81.5952Z" fill="#FFA800" fill-opacity="0.15" stroke="#FFA800"/>
<rect x="39.238" y="81.5226" width="209.808" height="8.00249" rx="4.00125" fill="#FFA800" fill-opacity="0.15" stroke="#FFA800"/>
<circle cx="144.143" cy="3.75104" r="3.75104" fill="#FFA800"/>
</svg>
