<svg xmlns="http://www.w3.org/2000/svg" width="31.978" height="32.872" viewBox="0 0 31.978 32.872">
  <path id="Path_152" data-name="Path 152" d="M22.2-4.9c5.664-6.061,9.727,4.768,9.727,11.965s-.544,11.218-8.99,11.218S9.415,15.344,9.415,8.146,16.54,1.162,22.2-4.9Z" transform="translate(-4.817 21.745) rotate(-30)" fill="#d57a69"/>
</svg>
