{
  "profiles": {
    "DinePlan.DineConnect.Migrator": {
      "commandName": "Project"
    },
    "Docker": {
      "commandName": "Docker",
      "environmentVariables": {
        "ASPNETCORE_Docker_Enabled": "true",
        "ConnectionStrings__Default": "Server=mssqlDb;Database=DineConnectDb;User=sa;Password=Super_Encrypted_Passw0rd!"
      }
    }
  }
}