﻿{
  "ConnectionStrings": {
    "Development": "Data Source=tcp:dineconnect.database.windows.net,1433;Database=DineConnect_Gateway;Persist Security Info=False;User ID=dineconnect_admin;Password=123@qwe!;MultipleActiveResultSets=true;Encrypt=True;TrustServerCertificate=False;Connection Timeout=180;Application Name=DineConnectGateway",
    "Staging": "Data Source=tcp:dineconnect.database.windows.net,1433;Database=DineConnect_Gateway;Persist Security Info=False;User ID=dineconnect_admin;Password=123@qwe!;MultipleActiveResultSets=true;Encrypt=True;TrustServerCertificate=False;Connection Timeout=180;Application Name=DineConnectGateway",
    "Production": "Data Source=tcp:dineconnect.database.windows.net,1433;Database=DineConnect_Gateway;Persist Security Info=False;User ID=dineconnect_admin;Password=123@qwe!;MultipleActiveResultSets=true;Encrypt=True;TrustServerCertificate=False;Connection Timeout=180;Application Name=DineConnectGateway"
  }
}