<svg xmlns="http://www.w3.org/2000/svg" width="56.964" height="47.293" viewBox="0 0 56.964 47.293">
  <g id="noun_Food_Delivery_537784_1_" data-name="noun_Food Delivery_537784 (1)" transform="translate(-16.5 -13.887)">
    <path id="Path_113" data-name="Path 113" d="M55.279,61.179a8.053,8.053,0,0,1-7.538-4.967l-.3.172a1.146,1.146,0,0,1-1.569-.424,5.589,5.589,0,0,1-.318-4.549c.043-.144.088-.285.135-.423a9.618,9.618,0,0,1-2.508,2.295c-1.357.674-3.932,1-7.783.966A8.189,8.189,0,0,1,19.2,54.1a20.25,20.25,0,0,1-4.475-.506,2.3,2.3,0,0,1-1.368-2.573c.2-1.788,1.76-4.234,3.671-5.857l-3.915-.712a1.146,1.146,0,0,1-.942-1.127v-1.5H9.277A2.781,2.781,0,0,1,6.5,39.05V30.985c0-1.254.98-3.7,2.777-3.7h9.876c1.8,0,2.777,2.442,2.777,3.7v6.662h2.284a7.638,7.638,0,0,1,.555-1.773,3.7,3.7,0,0,1-.547-1.867c0-.036,0-.071.01-.106l.806-6.045a7.6,7.6,0,0,1,3.652-5.768c-.06-.058-.117-.118-.174-.178a4.7,4.7,0,0,1-1.266-3.4,4.923,4.923,0,0,1,5.156-4.623,5,5,0,0,1,3.513,1.6,4.7,4.7,0,0,1,1.266,3.4,4.8,4.8,0,0,1-2.5,3.991,7.928,7.928,0,0,1,2.056,4.841c.1.746.169,1.538.208,2.023.824.244,1.741.452,2.585.644a22.407,22.407,0,0,1,2.423.635h0a1.8,1.8,0,0,1,.847.648l.777-.431A6.067,6.067,0,0,1,44.693,30.1a6.369,6.369,0,0,1,4.251-1.645,6.69,6.69,0,0,1,3.968.473,2.476,2.476,0,0,1,1.149,2.846c-.015.128-.031.26-.043.4a3.31,3.31,0,0,1-1.871,3.212,9.952,9.952,0,0,1-2.769.192l-.107-.006c.012.077.027.152.045.224.281,1.105,1.654,2.83,2.658,4.09.348.437.674.847.944,1.21l0,.005a3.077,3.077,0,0,1,.2.284,2.006,2.006,0,0,1,.312.655c.013.036.025.072.037.109l.01.032a3.274,3.274,0,0,1,.066,1.577,4.2,4.2,0,0,1-.15.545c3.559-.676,6.519-.2,8.036,1.313.119.119.215.21.3.287a5.866,5.866,0,0,1,1.227,1.651,1.145,1.145,0,0,1-.447,1.594,8.081,8.081,0,0,1,.96,3.843A8.2,8.2,0,0,1,55.279,61.179Zm-5.513-6.091a5.777,5.777,0,0,0,5.513,3.8,5.9,5.9,0,0,0,5.893-5.893A5.806,5.806,0,0,0,60.4,50.08c-.645.266-1.6.663-2.643,1.112a2.982,2.982,0,1,1-5.229,2.464C51.532,54.168,50.476,54.718,49.766,55.088Zm-28.231-.9a5.9,5.9,0,0,0,11.537.064c-.745.007-1.672.014-2.709.018-.01.054-.022.107-.035.161a2.981,2.981,0,0,1-5.829-.183C23.495,54.232,22.5,54.213,21.535,54.186Zm5.484.081a.685.685,0,0,0,.248.118.7.7,0,0,0,.522-.079.59.59,0,0,0,.054-.036ZM55.454,52.4a.69.69,0,1,0,.69.69A.691.691,0,0,0,55.454,52.4Zm.959-6.1a15.1,15.1,0,0,0-3.5.453,7.941,7.941,0,0,0-5.154,5.307,4.669,4.669,0,0,0-.228,1.628l.29-.168c.244-.129,5.044-2.646,6.213-3.184,2.535-1.167,5.525-2.391,6.216-2.673l-.1-.1c-.092-.088-.2-.191-.337-.326A4.946,4.946,0,0,0,56.413,46.3ZM15.625,51.483c1.413.427,10.468.568,18.644.46.036,0,.071,0,.11,0,.02,0,.043,0,.063,0,.037,0,.067,0,.1,0l.539.009a3.122,3.122,0,0,1-.385-1.844c.017-.425.058-2.442.1-4.342-.669,0-2.1,0-5.254,0-3.542-.006-8.345-.011-8.987,0-1.277.238-3.117,1.868-4.219,3.748A3.875,3.875,0,0,0,15.625,51.483ZM41.434,49.9l-.021.543a3.545,3.545,0,0,1-.168,1.086,4.258,4.258,0,0,0,.92-.3c1.025-.51,3.413-3.72,4.78-5.836a1.145,1.145,0,0,1,.951-.524,1.086,1.086,0,0,1,.961.5l.462.685a10.753,10.753,0,0,1,1.723-1.024A1.144,1.144,0,0,1,51.1,43.8a1.282,1.282,0,0,0,.2-.5.966.966,0,0,0-.019-.467l-.029-.081c-.009-.024-.017-.048-.025-.073l-.031-.046a1.141,1.141,0,0,0-.083-.119c-.014-.018-.031-.041-.046-.062-.254-.341-.56-.725-.886-1.133-1.258-1.58-2.685-3.369-3.087-4.954a5.829,5.829,0,0,1-.082-2.224,1.145,1.145,0,0,1,.458-.769,1.158,1.158,0,0,1,.872-.2,9.349,9.349,0,0,0,1.148.127,13.755,13.755,0,0,0,1.822-.041c.251-.116.334-.258.422-1.274.014-.164.033-.321.05-.472a5.08,5.08,0,0,0,.047-.549,4.7,4.7,0,0,0-2.675-.217,4.19,4.19,0,0,0-2.984,1.112c-.28.237-.454.4-.56.509l.168,2.083a48.054,48.054,0,0,1,.513,5.427C46.239,42.631,45.139,47.682,41.434,49.9Zm-4.422.822s.2.173,1.01.2c.849.033,1.056-.144,1.057-.146a1.642,1.642,0,0,0,.042-.411l.046-1.177c0-.022,0-.045,0-.067l.27-6.8c.076-1.9-.259-3.305-.968-4.071a2.885,2.885,0,0,0-2.125-.832l-9.307-.339c-.1,0-.2-.012-.287-.023a7.932,7.932,0,0,0-.32,1.166c-.01.046-.018.089-.024.126,1.012.564,4.784,1.155,7.961,1.378a3.231,3.231,0,0,1,2.21.885,2.13,2.13,0,0,1,.564,1.556c-.007.418-.13,7.172-.164,8.031a1.356,1.356,0,0,0,.029.523Zm2.245-14.781a4.615,4.615,0,0,1,.9.752c1.148,1.24,1.678,3.164,1.577,5.719l-.177,4.436A11.754,11.754,0,0,0,44,39.825a45.78,45.78,0,0,0-.494-5.088c0-.024-.007-.048-.009-.073l-.059-.731-.185.1c-.009.046-.018.092-.029.138s-.022.092-.035.137c0,.024,0,.048-.005.073l-.253,2.578a1.145,1.145,0,1,1-2.28-.224l.062-.636-.018,0v-.011A11.263,11.263,0,0,1,39.258,35.943ZM22.874,43.464c1.355,0,3.441,0,6.664.007,2.152,0,4.361.005,5.294,0,.014-.707.022-1.215.025-1.332a1.621,1.621,0,0,0-.606-.125c-6.239-.44-8.626-1.3-9.55-2.079H22.874Zm-8.415-1.1,6.071,1.1h.052V41.432a2.765,2.765,0,0,1-1.427.4h-4.7v.54Zm-5.666-9.15v5.831a.486.486,0,0,0,.486.486h9.876a.486.486,0,0,0,.486-.486V33.218Zm17.98,1.535c.048,0,.1.01.147.016.065.009.134.018.206.021l7.353.269c-.233-.047-.475-.1-.725-.149-2.932-.6-4.928-3.151-5.933-7.574a6.118,6.118,0,0,1-.126-.773A4.242,4.242,0,0,0,27.327,28c0,.036,0,.071-.01.106l-.8,6.01A2.313,2.313,0,0,0,26.772,34.753Zm14.046-.937a1.062,1.062,0,0,1,.12.007h0a.963.963,0,0,0,.083-.442c0-.016,0-.031,0-.047a.987.987,0,0,0-.032-.225c-.5-.158-1.212-.32-1.965-.492a25.5,25.5,0,0,1-4.253-1.226c-1.41-.608-2.7-3.644-3.352-5.453-.117-.214-.5-.8-1.078-.519-.218.106-.547.266-.288,1.4.3,1.3,1.189,5.234,4.162,5.846,3.173.653,5.925,1.112,6.5,1.155A.942.942,0,0,1,40.818,33.816ZM8.794,30.926H19.639a2.533,2.533,0,0,0-.586-1.344H9.38A2.535,2.535,0,0,0,8.794,30.926Zm24.748-5.858.008.02c.213.593.456,1.187.7,1.736A5.533,5.533,0,0,0,33.542,25.068Zm-1.325-8.89A2.612,2.612,0,0,0,29.542,18.6a2.422,2.422,0,0,0,.657,1.75,2.722,2.722,0,0,0,1.916.863A2.624,2.624,0,0,0,34.9,18.793a2.422,2.422,0,0,0-.657-1.75,2.722,2.722,0,0,0-1.916-.863Z" transform="translate(10)" fill="#343434"/>
  </g>
</svg>
