<svg id="Group_104" data-name="Group 104" xmlns="http://www.w3.org/2000/svg" width="25.855" height="25.855" viewBox="0 0 25.855 25.855">
  <g id="print" transform="translate(0)">
    <path id="Path_219" data-name="Path 219" d="M23.83,7.033H21.684V1.862A.862.862,0,0,0,20.823,1H7.033a.862.862,0,0,0-.862.862V7.033H4.025A3.025,3.025,0,0,0,1,10.058v7.757a3.025,3.025,0,0,0,3.025,3.008H7.033v5.171a.862.862,0,0,0,.862.862H19.961a.862.862,0,0,0,.862-.862V20.822H23.83A3.025,3.025,0,0,0,26.855,17.8V10.041A3.025,3.025,0,0,0,23.83,7.033ZM7.895,2.724H19.961V7.033H7.895ZM19.1,25.132H8.757V14.79H19.1ZM25.132,17.8a1.3,1.3,0,0,1-1.3,1.3H20.823V14.79a.862.862,0,1,0,0-1.724H7.033a.862.862,0,1,0,0,1.724V19.1H4.025a1.3,1.3,0,0,1-1.3-1.3V10.041a1.3,1.3,0,0,1,1.3-1.284H23.848a1.3,1.3,0,0,1,1.284,1.3Z" transform="translate(-1 -1)" fill="#707070"/>
    <path id="Path_220" data-name="Path 220" d="M18.033,19H12.862a.862.862,0,1,0,0,1.724h5.171a.862.862,0,1,0,0-1.724Z" transform="translate(-2.52 -3.487)" fill="#707070"/>
    <path id="Path_221" data-name="Path 221" d="M18.033,24H12.862a.862.862,0,1,0,0,1.724h5.171a.862.862,0,1,0,0-1.724Z" transform="translate(-2.52 -4.178)" fill="#707070"/>
  </g>
</svg>
