<svg id="Group_87" data-name="Group 87" xmlns="http://www.w3.org/2000/svg" width="23" height="23" viewBox="0 0 23 23">
  <path id="Path_111" data-name="Path 111" d="M21.227,4.973h0A11.494,11.494,0,1,0,4.973,21.227,11.494,11.494,0,1,0,21.227,4.973ZM13.1,22.241A9.141,9.141,0,1,1,22.241,13.1,9.151,9.151,0,0,1,13.1,22.241Z" transform="translate(-1.6 -1.6)" fill="#545454"/>
  <path id="Path_112" data-name="Path 112" d="M58.9,38.64a1.652,1.652,0,0,0,.224-.835,1.733,1.733,0,0,0-.958-1.549v-4.4a.754.754,0,1,0-1.508,0v4.4A1.733,1.733,0,0,0,55.7,37.8a1.709,1.709,0,0,0,1.712,1.712,1.668,1.668,0,0,0,.774-.183l2.466,2.506a.5.5,0,0,0,.713-.713Z" transform="translate(-46.042 -26.094)" fill="#545454"/>
</svg>
