<svg xmlns="http://www.w3.org/2000/svg" width="8.573" height="8.2" viewBox="0 0 8.573 8.2">
  <path id="Path_33" data-name="Path 33" d="M35.573,984.463a.627.627,0,0,0-.151-.384l-3.355-3.541a.557.557,0,0,0-.793-.018.55.55,0,0,0-.017.787l2.458,2.6H27.559a.559.559,0,0,0,0,1.118h6.156l-2.458,2.6a.552.552,0,0,0,.017.789.559.559,0,0,0,.793-.02l3.355-3.541a.544.544,0,0,0,.151-.384Z" transform="translate(-27 -980.362)" fill="#fff"/>
</svg>
