<svg xmlns="http://www.w3.org/2000/svg" width="18.987" height="18.968" viewBox="0 0 18.987 18.968">
  <path id="Path_216" data-name="Path 216" d="M58.5,47.576c-1.254-.679-2.171-.783-2.652-.3a.937.937,0,0,0-.077.087,7.884,7.884,0,0,0-2.256,5.144,7.7,7.7,0,0,0-1.942,4.007,4.983,4.983,0,0,0,.112,2l-2.345,2.345a1.631,1.631,0,0,0-2.119.217,1.7,1.7,0,0,0-.5,1.174,1.614,1.614,0,0,0,.469,1.19,1.7,1.7,0,0,0,1.369.478,1.671,1.671,0,0,0,.487,1.365,1.6,1.6,0,0,0,1.139.457,1.764,1.764,0,0,0,1.245-.513,1.656,1.656,0,0,0,.091-2.235l2.1-2.1a4.357,4.357,0,0,0,1.949.432,5.726,5.726,0,0,0,.914-.076,7.9,7.9,0,0,0,4.228-2.277l.074-.075a7.972,7.972,0,0,0,4.385-2.234l.03-.028h0c1.031-1.031-.782-3.924-3.107-6.249A16.545,16.545,0,0,0,58.5,47.576ZM50.762,62.738h0a.359.359,0,0,0,0,.508l.015.014.007.007a.526.526,0,0,0,.045.04q.049.04.094.085a.938.938,0,0,1,.006,1.325,1,1,0,0,1-1.369.057.908.908,0,0,1-.083-1.226.359.359,0,0,0-.014-.493l-.03-.03a.359.359,0,0,0-.5-.011.942.942,0,0,1-1.233-.084.9.9,0,0,1-.258-.667,1,1,0,0,1,.288-.682.91.91,0,0,1,1.3-.051c.246.246.5.076.693-.048a.364.364,0,0,0,.056-.046l2.192-2.192A3.628,3.628,0,0,0,53,60.5Zm.213.611a.352.352,0,0,1-.132-.041h0A.357.357,0,0,0,50.975,63.349ZM50.83,63.3h0a.337.337,0,0,1-.049-.036.357.357,0,0,0,.05.036Zm9.743-5.1a.359.359,0,0,0-.215.11c-.048.051-.1.1-.147.152a7.177,7.177,0,0,1-3.835,2.076,3.6,3.6,0,0,1-3.214-.853c-1.538-1.538-1.109-4.521.977-6.792a.359.359,0,0,0,.095-.237,7.012,7.012,0,0,1,1.4-4.01,5.507,5.507,0,0,0,.525,1.283,16.539,16.539,0,0,0,2.8,3.6,12.637,12.637,0,0,0,4.888,3.331A7.1,7.1,0,0,1,60.573,58.2Zm4.135-2.084-.019.018c-.4.346-2.51-.405-5.222-3.117a15.815,15.815,0,0,1-2.68-3.431c-.5-.932-.593-1.54-.458-1.761l.044-.045,0,0a.442.442,0,0,1,.3-.081,3.536,3.536,0,0,1,1.5.515,15.819,15.819,0,0,1,3.431,2.68C64.312,53.607,65.061,55.721,64.707,56.113Z" transform="translate(-46.625 -46.87)" fill="#fff" stroke="#fff" stroke-width="0.2"/>
</svg>
