<svg xmlns="http://www.w3.org/2000/svg" width="48.578" height="51.552" viewBox="0 0 48.578 51.552">
  <path id="Path_150" data-name="Path 150" d="M31.439-3.617C41.193-14.055,48.19,4.593,48.19,16.989s-.936,19.319-15.481,19.319S9.415,31.243,9.415,18.848,21.685,6.821,31.439-3.617Z" transform="matrix(-0.966, 0.259, -0.259, -0.966, 55.945, 32.633)" fill="#f26b55"/>
</svg>
