<svg id="icon" xmlns="http://www.w3.org/2000/svg" width="21.5" height="21.5" viewBox="0 0 21.5 21.5">
  <path id="Path_6" data-name="Path 6" d="M11.362,5.838a5.516,5.516,0,1,0,5.516,5.516,5.516,5.516,0,0,0-5.516-5.516Zm0,9.1a3.581,3.581,0,1,1,3.581-3.581A3.579,3.579,0,0,1,11.362,14.935Z" transform="translate(-0.609 -0.609)" fill="#4a4b4a"/>
  <path id="Path_7" data-name="Path 7" d="M15.182.068C13.2-.024,8.305-.02,6.325.068A6.424,6.424,0,0,0,1.814,1.807C-.254,3.874.011,6.66.011,10.746c0,4.182-.233,6.9,1.8,8.939,2.076,2.075,4.9,1.8,8.939,1.8,4.142,0,5.572,0,7.037-.564,1.991-.773,3.495-2.553,3.642-5.75.093-1.979.088-6.877,0-8.857-.177-3.774-2.2-6.063-6.249-6.249Zm3.131,18.25c-1.355,1.355-3.236,1.234-7.586,1.234-4.479,0-6.275.066-7.586-1.248-1.509-1.5-1.236-3.915-1.236-7.572,0-4.949-.508-8.514,4.459-8.768,1.141-.04,1.477-.054,4.35-.054l.04.027c4.774,0,8.519-.5,8.744,4.467.051,1.133.063,1.474.063,4.342,0,4.427.083,6.234-1.249,7.572Z" transform="translate(0 -0.001)" fill="#4a4b4a"/>
  <ellipse id="Ellipse_1" data-name="Ellipse 1" cx="1.289" cy="1.289" rx="1.289" ry="1.289" transform="translate(15.2 3.722)" fill="#4a4b4a"/>
</svg>
