<svg xmlns="http://www.w3.org/2000/svg" width="114.224" height="127.257" viewBox="0 0 114.224 127.257">
  <g id="Group_85" data-name="Group 85" transform="translate(-848.397 -520.107)">
    <path id="Path_88" data-name="Path 88" d="M88.009,10.64a24.249,24.249,0,0,0-34.235,0L48.3,16.118,42.825,10.64A24.208,24.208,0,1,0,8.59,44.875L47.159,83.442a1.613,1.613,0,0,0,2.282,0L88.009,44.875a24.235,24.235,0,0,0,0-34.235Z" transform="translate(854.499 563.45)" fill="#fedb59"/>
    <line id="Line_26" data-name="Line 26" y1="26" transform="translate(903.5 521.607)" fill="none" stroke="#fedb59" stroke-linecap="round" stroke-width="3"/>
    <line id="Line_27" data-name="Line 27" y1="17" x2="17" transform="translate(943.5 527.715)" fill="none" stroke="#fedb59" stroke-linecap="round" stroke-width="3"/>
    <line id="Line_28" data-name="Line 28" x1="13" y1="17" transform="translate(850.5 527.715)" fill="none" stroke="#fedb59" stroke-linecap="round" stroke-width="3"/>
  </g>
</svg>
