<svg xmlns="http://www.w3.org/2000/svg" width="50" height="50" viewBox="0 0 50 50">
    <defs>
        <style>.a{fill:#fff;}.b{fill:#a9a9a9;fill-rule:evenodd;}</style>
    </defs>
    <g transform="translate(0 0)">
        <path class="a" d="M-346.09-397a25.006,25.006,0,0,1-25,25,25.006,25.006,0,0,1-25-25,25,25,0,0,1,25-25A25,25,0,0,1-346.09-397Z" transform="translate(396.09 422)"/>
        <path class="b" d="M-205.762-250.561A14.817,14.817,0,0,0-220.228-262a15.1,15.1,0,0,0-2.851.292,14.815,14.815,0,0,0-10.1,21.616.82.82,0,0,1,.063.667q-.953,3.468-1.9,6.928c-.1.377-.1.377.277.281,2.4-.628,4.792-1.251,7.188-1.885a.7.7,0,0,1,.537.063,14.729,14.729,0,0,0,9.741,1.382A14.858,14.858,0,0,0-205.762-250.561Zm-12.392,15.525a10.57,10.57,0,0,1-1.7.167,12.471,12.471,0,0,1-6.686-1.774.9.9,0,0,0-.76-.114c-1.314.364-2.636.691-3.952,1.039-.277.083-.3.023-.233-.227.348-1.251.676-2.494,1.037-3.729a1.026,1.026,0,0,0-.135-.925,12.111,12.111,0,0,1,.436-13.773c3.142-4.184,7.416-5.9,12.529-4.806a11.654,11.654,0,0,1,9.431,9.324A12.279,12.279,0,0,1-218.154-235.037Z" transform="translate(245.217 272.079)"/>
        <path class="b" d="M-106.5-121.575a5.055,5.055,0,0,1-1.543-.236,14.978,14.978,0,0,1-8.023-5.927A8.513,8.513,0,0,1-117.8-131.2a4.159,4.159,0,0,1,1.343-4.013,2.43,2.43,0,0,1,1.97-.274.768.768,0,0,1,.348.4c.431,1.026.857,2.037,1.279,3.063a.713.713,0,0,1-.043.585,4.708,4.708,0,0,1-.918,1.223.605.605,0,0,0-.084.85,10.154,10.154,0,0,0,5.05,4.337.6.6,0,0,0,.787-.189c.363-.448.746-.9,1.09-1.36a.6.6,0,0,1,.838-.221c.723.328,1.44.67,2.161,1.014.161.069.321.152.481.228.729.365.722.373.66,1.178-.122,1.575-1.3,2.349-2.7,2.736A3.118,3.118,0,0,1-106.5-121.575Z" transform="translate(135.378 153.594)"/>
    </g>
</svg>