{
  "IsRegenerate": false,
  "MenuPosition": "main",
  "RelativeNamespace": "Connect.Master.Terminals",
  "EntityName": "Terminal",
  "EntityNamePlural": "Terminals",
  "TableName": "Terminals",
  "PrimaryKeyType": "int",
  "BaseClass": "FullAuditedEntity",
  "EntityHistory": true,
  "AutoMigration": true,
  "UpdateDatabase": true,
  "CreateUserInterface": true,
  "CreateViewOnly": false,
  "CreateExcelExport": true,
  "PagePermission": {
    "Host": false,
    "Tenant": true
  },
  "Properties": [
    {
      "Name": "Name",
      "Type": "string",
      "MaxLength": -1,
      "MinLength": -1,
      "Range": {
        "IsRangeSet": false,
        "MinimumValue": 0,
        "MaximumValue": 0
      },
      "Required": true,
      "Nullable": false,
      "Regex": "",
      "UserInterface": {
        "AdvancedFilter": false,
        "List": true,
        "CreateOrUpdate": true
      }
    },
    {
      "Name": "TerminalCode",
      "Type": "string",
      "MaxLength": -1,
      "MinLength": -1,
      "Range": {
        "IsRangeSet": false,
        "MinimumValue": 0,
        "MaximumValue": 0
      },
      "Required": true,
      "Nullable": false,
      "Regex": "",
      "UserInterface": {
        "AdvancedFilter": false,
        "List": true,
        "CreateOrUpdate": true
      }
    },
    {
      "Name": "Float",
      "Type": "decimal",
      "MaxLength": 0,
      "MinLength": 0,
      "Range": {
        "IsRangeSet": false,
        "MinimumValue": 0,
        "MaximumValue": 0
      },
      "Required": false,
      "Nullable": false,
      "Regex": "",
      "UserInterface": {
        "AdvancedFilter": false,
        "List": false,
        "CreateOrUpdate": true
      }
    },
    {
      "Name": "Denominations",
      "Type": "string",
      "MaxLength": -1,
      "MinLength": -1,
      "Range": {
        "IsRangeSet": false,
        "MinimumValue": 0,
        "MaximumValue": 0
      },
      "Required": false,
      "Nullable": false,
      "Regex": "",
      "UserInterface": {
        "AdvancedFilter": false,
        "List": true,
        "CreateOrUpdate": true
      }
    },
    {
      "Name": "IsDefault",
      "Type": "bool",
      "MaxLength": -1,
      "MinLength": -1,
      "Range": {
        "IsRangeSet": false,
        "MinimumValue": 0,
        "MaximumValue": 0
      },
      "Required": false,
      "Nullable": false,
      "Regex": "",
      "UserInterface": {
        "AdvancedFilter": false,
        "List": true,
        "CreateOrUpdate": true
      }
    },
    {
      "Name": "AutoLogout",
      "Type": "bool",
      "MaxLength": 0,
      "MinLength": 0,
      "Range": {
        "IsRangeSet": false,
        "MinimumValue": 0,
        "MaximumValue": 0
      },
      "Required": false,
      "Nullable": false,
      "Regex": "",
      "UserInterface": {
        "AdvancedFilter": false,
        "List": true,
        "CreateOrUpdate": true
      }
    },
    {
      "Name": "IsEndWorkTimeMoneyShown",
      "Type": "bool",
      "MaxLength": 0,
      "MinLength": 0,
      "Range": {
        "IsRangeSet": false,
        "MinimumValue": 0,
        "MaximumValue": 0
      },
      "Required": false,
      "Nullable": false,
      "Regex": "",
      "UserInterface": {
        "AdvancedFilter": false,
        "List": false,
        "CreateOrUpdate": true
      }
    },
    {
      "Name": "IsCollectionTerminal",
      "Type": "bool",
      "MaxLength": 0,
      "MinLength": 0,
      "Range": {
        "IsRangeSet": false,
        "MinimumValue": 0,
        "MaximumValue": 0
      },
      "Required": false,
      "Nullable": false,
      "Regex": "",
      "UserInterface": {
        "AdvancedFilter": false,
        "List": false,
        "CreateOrUpdate": true
      }
    },
    {
      "Name": "WorkTimeTotalInFloat",
      "Type": "bool",
      "MaxLength": 0,
      "MinLength": 0,
      "Range": {
        "IsRangeSet": false,
        "MinimumValue": 0,
        "MaximumValue": 0
      },
      "Required": false,
      "Nullable": false,
      "Regex": "",
      "UserInterface": {
        "AdvancedFilter": false,
        "List": false,
        "CreateOrUpdate": true
      }
    },
    {
      "Name": "OrganizationId",
      "Type": "int",
      "MaxLength": 0,
      "MinLength": 0,
      "Range": {
        "IsRangeSet": false,
        "MinimumValue": 0,
        "MaximumValue": 0
      },
      "Required": false,
      "Nullable": false,
      "Regex": "",
      "UserInterface": {
        "AdvancedFilter": false,
        "List": false,
        "CreateOrUpdate": false
      }
    }
  ],
  "NavigationProperties": [],
  "EnumDefinitions": []
}