{
  "IsRegenerate": false,
  "MenuPosition": null,
  "RelativeNamespace": "Connect.Sync",
  "EntityName": "LocationSyncer",
  "EntityNamePlural": "LocationSyncers",
  "TableName": "LocationSyncers",
  "PrimaryKeyType": "int",
  "BaseClass": "CreationAuditedEntity",
  "EntityHistory": false,
  "AutoMigration": true,
  "UpdateDatabase": true,
  "CreateUserInterface": false,
  "CreateViewOnly": true,
  "CreateExcelExport": true,
  "IsNonModalCRUDPage": false,
  "IsMasterDetailPage": false,
  "PagePermission": {
    "Host": true,
    "Tenant": false
  },
  "Properties": [
    {
      "Name": "SyncerGuid",
      "Type": "Guid",
      "MaxLength": 0,
      "MinLength": 0,
      "Range": {
        "IsRangeSet": false,
        "MinimumValue": 0.0,
        "MaximumValue": 0.0
      },
      "Required": false,
      "Nullable": false,
      "Regex": "",
      "UserInterface": {
        "AdvancedFilter": false,
        "List": true,
        "CreateOrUpdate": true
      }
    },
    {
      "Name": "LastSyncTime",
      "Type": "DateTime",
      "MaxLength": 0,
      "MinLength": 0,
      "Range": {
        "IsRangeSet": false,
        "MinimumValue": 0.0,
        "MaximumValue": 0.0
      },
      "Required": false,
      "Nullable": false,
      "Regex": "",
      "UserInterface": {
        "AdvancedFilter": false,
        "List": true,
        "CreateOrUpdate": true
      }
    }
  ],
  "NavigationProperties": [
    {
      "Namespace": "DinePlan.DineConnect.Connect.Master.Locations",
      "ForeignEntityName": "Location",
      "IdType": "int",
      "IsNullable": false,
      "PropertyName": "LocationId",
      "DisplayPropertyName": "Name",
      "DuplicationNumber": 0,
      "RelationType": "single",
      "ViewType": "LookupTable"
    },
    {
      "Namespace": "DinePlan.DineConnect.Connect.Sync",
      "ForeignEntityName": "Syncer",
      "IdType": "int",
      "IsNullable": false,
      "PropertyName": "SyncerId",
      "DisplayPropertyName": "Name",
      "DuplicationNumber": 0,
      "RelationType": "single",
      "ViewType": "LookupTable"
    }
  ],
  "NavigationPropertyOneToManyTables": [],
  "EnumDefinitions": [],
  "DbContext": null
}