{
  "IsRegenerate": false,
  "MenuPosition": "main",
  "RelativeNamespace": "Connect.Tax.FullTaxMembers",
  "EntityName": "FullTaxMember",
  "EntityNamePlural": "FullTaxMembers",
  "TableName": "FullTaxMembers",
  "PrimaryKeyType": "int",
  "BaseClass": "FullAuditedEntity",
  "EntityHistory": false,
  "AutoMigration": false,
  "UpdateDatabase": false,
  "CreateUserInterface": true,
  "CreateViewOnly": false,
  "CreateExcelExport": true,
  "PagePermission": {
    "Host": false,
    "Tenant": true
  },
  "Properties": [
    {
      "Name": "TaxId",
      "Type": "string",
      "MaxLength": 20,
      "MinLength": 0,
      "Range": {
        "IsRangeSet": false,
        "MinimumValue": 0,
        "MaximumValue": 0
      },
      "Required": true,
      "Nullable": false,
      "Regex": "",
      "UserInterface": {
        "AdvancedFilter": false,
        "List": true,
        "CreateOrUpdate": true
      }
    },
    {
      "Name": "BranchId",
      "Type": "string",
      "MaxLength": 20,
      "MinLength": 0,
      "Range": {
        "IsRangeSet": false,
        "MinimumValue": 0,
        "MaximumValue": 0
      },
      "Required": true,
      "Nullable": false,
      "Regex": "",
      "UserInterface": {
        "AdvancedFilter": false,
        "List": true,
        "CreateOrUpdate": true
      }
    },
    {
      "Name": "Name",
      "Type": "string",
      "MaxLength": -1,
      "MinLength": -1,
      "Range": {
        "IsRangeSet": false,
        "MinimumValue": 0,
        "MaximumValue": 0
      },
      "Required": true,
      "Nullable": false,
      "Regex": "",
      "UserInterface": {
        "AdvancedFilter": false,
        "List": true,
        "CreateOrUpdate": true
      }
    },
    {
      "Name": "Phone",
      "Type": "string",
      "MaxLength": -1,
      "MinLength": -1,
      "Range": {
        "IsRangeSet": false,
        "MinimumValue": 0,
        "MaximumValue": 0
      },
      "Required": false,
      "Nullable": false,
      "Regex": "",
      "UserInterface": {
        "AdvancedFilter": false,
        "List": true,
        "CreateOrUpdate": true
      }
    }
  ],
  "NavigationProperties": [],
  "EnumDefinitions": []
}