{
  "IsRegenerate": false,
  "MenuPosition": "main",
  "RelativeNamespace": "Connect.Master.LocationTags",
  "EntityName": "LocationTagLocation",
  "EntityNamePlural": "LocationTagLocations",
  "TableName": "LocationTagLocations",
  "PrimaryKeyType": "int",
  "BaseClass": "FullAuditedEntity",
  "EntityHistory": true,
  "AutoMigration": true,
  "UpdateDatabase": true,
  "CreateUserInterface": true,
  "CreateViewOnly": false,
  "CreateExcelExport": true,
  "PagePermission": {
    "Host": false,
    "Tenant": true
  },
  "Properties": [],
  "NavigationProperties": [
    {
      "Namespace": "DinePlan.DineConnect.Connect.Master.Locations",
      "ForeignEntityName": "Location",
      "IdType": "int",
      "IsNullable": false,
      "PropertyName": "LocationId",
      "DisplayPropertyName": "Name",
      "DuplicationNumber": 0,
      "RelationType": "single"
    },
    {
      "Namespace": "DinePlan.DineConnect.Connect.Master.LocationTags",
      "ForeignEntityName": "LocationTag",
      "IdType": "int",
      "IsNullable": false,
      "PropertyName": "LocationTagId",
      "DisplayPropertyName": "Name",
      "DuplicationNumber": 0,
      "RelationType": "single"
    }
  ],
  "EnumDefinitions": []
}