{
  "IsRegenerate": false,
  "MenuPosition": "main",
  "RelativeNamespace": "Connect.Users.DinePlanUserRoles",
  "EntityName": "DinePlanUserRole",
  "EntityNamePlural": "DinePlanUserRoles",
  "TableName": "DinePlanUserRoles",
  "PrimaryKeyType": "int",
  "BaseClass": "FullAuditedEntity",
  "EntityHistory": false,
  "AutoMigration": false,
  "UpdateDatabase": false,
  "CreateUserInterface": true,
  "CreateViewOnly": false,
  "CreateExcelExport": true,
  "PagePermission": {
    "Host": false,
    "Tenant": true
  },
  "Properties": [
    {
      "Name": "Name",
      "Type": "string",
      "MaxLength": -1,
      "MinLength": -1,
      "Range": {
        "IsRangeSet": false,
        "MinimumValue": 0,
        "MaximumValue": 0
      },
      "Required": true,
      "Nullable": false,
      "Regex": "",
      "UserInterface": {
        "AdvancedFilter": false,
        "List": true,
        "CreateOrUpdate": true
      }
    },
    {
      "Name": "IsAdmin",
      "Type": "bool",
      "MaxLength": 0,
      "MinLength": 0,
      "Range": {
        "IsRangeSet": false,
        "MinimumValue": 0,
        "MaximumValue": 0
      },
      "Required": false,
      "Nullable": false,
      "Regex": "",
      "UserInterface": {
        "AdvancedFilter": false,
        "List": true,
        "CreateOrUpdate": true
      }
    }
  ],
  "NavigationProperties": [
    {
      "Namespace": "DinePlan.DineConnect.Connect.Master.Departments",
      "ForeignEntityName": "Department",
      "IdType": "int",
      "IsNullable": true,
      "PropertyName": "DepartmentId",
      "DisplayPropertyName": "Name",
      "DuplicationNumber": 0,
      "RelationType": "single"
    }
  ],
  "EnumDefinitions": []
}