<svg xmlns="http://www.w3.org/2000/svg" width="17.844" height="11.722" viewBox="0 0 17.844 11.722">
  <path id="Path_21" data-name="Path 21" d="M1147.807,5359.016l7.511,7.482,7.51-7.482" transform="translate(-1146.395 -5357.599)" fill="transparent" stroke="#545454" stroke-width="4"/>
</svg>
