<svg xmlns="http://www.w3.org/2000/svg" width="64.563" height="57.552" viewBox="0 0 64.563 57.552">
  <g id="icon" transform="translate(-9 -966.362)">
    <path id="Path_10" data-name="Path 10" d="M15.3,966.362A6.369,6.369,0,0,0,9,972.757v45.562a5.577,5.577,0,0,0,5.511,5.6h53.54a5.577,5.577,0,0,0,5.511-5.6V981.55a5.577,5.577,0,0,0-5.511-5.6H64.114v-7.993a1.649,1.649,0,0,0-1.575-1.6Zm0,3.2H60.965v6.395H15.3a3.2,3.2,0,0,1,0-6.395Zm-3.149,8.718a6.177,6.177,0,0,0,3.149.874c17.734-.016,37.51,0,52.752,0a2.341,2.341,0,0,1,2.362,2.4v9.592H47.58a3.994,3.994,0,0,0-3.937,4v9.592a3.994,3.994,0,0,0,3.937,4H70.413v9.592a2.341,2.341,0,0,1-2.362,2.4H14.511a2.341,2.341,0,0,1-2.362-2.4ZM47.58,994.339H70.413v11.191H47.58a.759.759,0,0,1-.787-.8v-9.592A.759.759,0,0,1,47.58,994.339Zm7.873,2.4a3.2,3.2,0,1,0,3.149,3.2A3.174,3.174,0,0,0,55.454,996.737Z" fill="#545454"/>
  </g>
</svg>
