<svg xmlns="http://www.w3.org/2000/svg" width="51.02" height="47.976" viewBox="0 0 51.02 47.976">
  <g id="Group_92" data-name="Group 92" transform="translate(-1621.98 -67)">
    <path id="Path_183" data-name="Path 183" d="M33.593-3.953C44.3-13.245,51.983,3.356,51.983,14.391s-1.028,17.2-17,17.2S9.415,27.08,9.415,16.046,22.885,5.339,33.593-3.953Z" transform="matrix(-0.966, 0.259, -0.259, -0.966, 1680.367, 95.075)" fill="#FFA800"/>
    <g id="arrow" transform="translate(1608.568 -896.362)">
      <path id="Path_33" data-name="Path 33" d="M42.489,987.77a1.133,1.133,0,0,0-.274-.695l-6.061-6.4a1.007,1.007,0,0,0-1.433-.033,1,1,0,0,0-.03,1.422l4.44,4.693H28.01a1.01,1.01,0,0,0,0,2.02H39.132l-4.44,4.693a1,1,0,0,0,.03,1.425,1.01,1.01,0,0,0,1.432-.036l6.061-6.4a.984.984,0,0,0,.274-.694Z" fill="#fff"/>
    </g>
  </g>
</svg>
