<svg xmlns="http://www.w3.org/2000/svg" width="21.998" height="21.998" viewBox="0 0 21.998 21.998">
  <path id="Path_205" data-name="Path 205" d="M20.82,10.148A10.749,10.749,0,1,0,31.569,20.9,10.761,10.761,0,0,0,20.82,10.148ZM10.585,20.9a10.227,10.227,0,0,1,17.282-7.411l-4.051,4.051a.352.352,0,0,0-.077-.118.6.6,0,0,0-.45-.12,2.87,2.87,0,0,0-1.833.728,2.533,2.533,0,0,0-.373.447v-.486a2.647,2.647,0,0,0,.895-1.872A1.917,1.917,0,0,0,20.9,14.354a.5.5,0,0,0-.07-.007c-.417,0-1.105.827-1.105,1.769a2.648,2.648,0,0,0,.895,1.872v.493a2.569,2.569,0,0,0-.379-.455,2.875,2.875,0,0,0-1.836-.73.6.6,0,0,0-.448.12.586.586,0,0,0-.133.44,2.57,2.57,0,0,0,.78,1.753,2.824,2.824,0,0,0,1.8.748h0a1.135,1.135,0,0,0,.213-.02v.418l-.26.26h0c-.051-.059-.1-.118-.159-.173a2.948,2.948,0,0,0-1.883-.754.594.594,0,0,0-.442.118.578.578,0,0,0-.132.434,2.644,2.644,0,0,0,.805,1.8c.064.06.131.115.2.168l-.2.2s0,.008-.008.012a2.188,2.188,0,0,0-.224-.015.592.592,0,0,0-.442.119.58.58,0,0,0-.131.435,1.914,1.914,0,0,0,.019.236l-4.358,4.358A10.16,10.16,0,0,1,10.585,20.9Zm12.192-1.623a2.358,2.358,0,0,1-1.481.62.64.64,0,0,1-.161-.016,1.92,1.92,0,0,1,.639-1.514,2.412,2.412,0,0,1,1.515-.6.913.913,0,0,1,.117.007A2.038,2.038,0,0,1,22.778,19.274Zm-1.926-1.683a2.3,2.3,0,0,1-.663-1.476,1.662,1.662,0,0,1,.631-1.3,1.572,1.572,0,0,1,.695,1.3A2.3,2.3,0,0,1,20.852,17.591Zm-.287,2.285a.642.642,0,0,1-.159.016h0a2.364,2.364,0,0,1-1.485-.622,2.048,2.048,0,0,1-.631-1.506,2.4,2.4,0,0,1,1.633.6A1.927,1.927,0,0,1,20.565,19.877ZM20.2,23.554a2.782,2.782,0,0,0-1.063-.611l.057-.057a2.765,2.765,0,0,0,1.2.323,1.109,1.109,0,0,0,.223-.022v.881A2.643,2.643,0,0,0,20.2,23.554Zm.351,1.89a.636.636,0,0,1-.154.015,2.442,2.442,0,0,1-1.53-.646,2.123,2.123,0,0,1-.657-1.544,2.5,2.5,0,0,1,1.673.622A2,2,0,0,1,20.552,25.444ZM18.868,22.1a2.122,2.122,0,0,1-.657-1.544,2.5,2.5,0,0,1,1.673.622,2,2,0,0,1,.668,1.553.641.641,0,0,1-.155.015A2.439,2.439,0,0,1,18.868,22.1Zm1.952,9.032a10.161,10.161,0,0,1-7.051-2.82l4.14-4.14a2.583,2.583,0,0,0,.64.978,2.9,2.9,0,0,0,1.848.773,1.1,1.1,0,0,0,.222-.022v1.317a.232.232,0,0,0,.463,0V25.908a1.187,1.187,0,0,0,.221.021,2.837,2.837,0,0,0,1.814-.747,2.549,2.549,0,0,0,.777-1.761.614.614,0,0,0-.136-.46.629.629,0,0,0-.467-.123,2.841,2.841,0,0,0-1.847.728,2.515,2.515,0,0,0-.361.428v-.8a1.188,1.188,0,0,0,.221.02,2.837,2.837,0,0,0,1.814-.747,2.547,2.547,0,0,0,.777-1.761.615.615,0,0,0-.137-.46.628.628,0,0,0-.467-.123,2.841,2.841,0,0,0-1.848.728,2.536,2.536,0,0,0-.361.428v-.263l.73-.73A2.864,2.864,0,0,0,23.1,19.61a2.594,2.594,0,0,0,.736-1.365.027.027,0,0,0,0,0l4.4-4.4A10.227,10.227,0,0,1,20.82,31.132Zm.942-7.229a2.4,2.4,0,0,1,1.53-.6.9.9,0,0,1,.135.009,2.033,2.033,0,0,1-.627,1.536,2.379,2.379,0,0,1-1.5.62.657.657,0,0,1-.178-.019A1.9,1.9,0,0,1,21.762,23.9Zm0-2.713a2.4,2.4,0,0,1,1.53-.6.939.939,0,0,1,.135.008,2.034,2.034,0,0,1-.627,1.536,2.379,2.379,0,0,1-1.5.62.656.656,0,0,1-.178-.019A1.9,1.9,0,0,1,21.762,21.19Z" transform="translate(-9.821 -9.898)" fill="#fff" stroke="#fff" stroke-width="0.5"/>
</svg>
