<svg xmlns="http://www.w3.org/2000/svg" width="35" height="20" viewBox="0 0 35 20">
  <g id="Group_107" data-name="Group 107" transform="translate(-924 -858)">
    <g id="Rectangle_102" data-name="Rectangle 102" transform="translate(924 858)" fill="#fff" stroke="#aaa" stroke-width="1">
      <rect width="35" height="20" rx="2" stroke="none"/>
      <rect x="0.5" y="0.5" width="34" height="19" rx="1.5" fill="none"/>
    </g>
    <g id="american-express" transform="translate(929 699.6)">
      <path id="Path_156" data-name="Path 156" d="M43.2,186.317h.877l-.439-1.117Z" transform="translate(-41.046 -19.763)" fill="#2fabf7"/>
      <path id="Path_157" data-name="Path 157" d="M240.317,187.64a.777.777,0,0,0-.319-.04h-.8v.638h.8a.778.778,0,0,0,.319-.04.311.311,0,0,0,.12-.279A.222.222,0,0,0,240.317,187.64Z" transform="translate(-227.275 -22.043)" fill="#228fe0"/>
      <path id="Path_158" data-name="Path 158" d="M21.577,164.4v.479l-.239-.479H19.463v.479l-.239-.479H16.671a2.428,2.428,0,0,0-1.117.239V164.4H13.76v.239A1.15,1.15,0,0,0,13,164.4H6.581l-.439,1-.439-1H3.669v.479L3.43,164.4H1.715l-.8,1.875L0,168.348H2.034l.239-.638h.558l.239.638H5.384v-.479l.2.479H6.74l.2-.479v.479h5.544v-1.037h.08c.08,0,.08,0,.08.12v.877h2.872v-.239a2.389,2.389,0,0,0,1.077.239h1.2l.239-.638h.558l.239.638h2.313v-.6l.359.6h1.875V164.4ZM8.1,167.75H7.418v-2.194l-.957,2.194h-.6l-.957-2.194v2.194H3.55l-.279-.6H1.914l-.239.638H.917l1.2-2.832h1l1.117,2.672v-2.672H5.3l.877,1.914.8-1.914H8.1Zm2.712-2.194H9.253v.518h1.516v.558H9.253v.558h1.555v.6H8.575v-2.832h2.233Zm2.991,1.157a1,1,0,0,1,.12.518v.558h-.678v-.359a.95.95,0,0,0-.12-.558c-.12-.12-.239-.12-.479-.12h-.718v1.037h-.678v-2.832h1.516a1.529,1.529,0,0,1,.8.12.68.68,0,0,1,.319.638.794.794,0,0,1-.479.758A.758.758,0,0,1,13.8,166.713ZM15,167.75h-.678v-2.832H15Zm7.857,0H21.9l-1.276-2.114v2.114H19.264l-.239-.6h-1.4l-.239.638h-.758a1.2,1.2,0,0,1-1.316-1.4,1.635,1.635,0,0,1,.359-1.117,1.257,1.257,0,0,1,1-.319h.638v.6h-.638a.736.736,0,0,0-.518.16.937.937,0,0,0-.2.638.868.868,0,0,0,.2.678.636.636,0,0,0,.479.16h.279L17.828,165h1l1.117,2.672V165h1l1.157,1.954V165h.678v2.752Z" fill="#0571c1"/>
      <g id="Group_93" data-name="Group 93" transform="translate(10.051 165.437)">
        <path id="Path_159" data-name="Path 159" d="M358.4,186.317h.917l-.439-1.117Z" transform="translate(-350.583 -185.2)" fill="#228fe0"/>
        <path id="Path_160" data-name="Path 160" d="M202.637,279.473V277.2l-1.037,1.117Z" transform="translate(-201.6 -272.613)" fill="#228fe0"/>
      </g>
      <path id="Path_161" data-name="Path 161" d="M136.8,282.8v.518h1.476v.558H136.8v.6h1.635l.758-.838-.718-.838Z" transform="translate(-129.98 -112.497)" fill="#2fabf7"/>
      <path id="SVGCleanerId_0" d="M236.838,282.8H236v.718h.877c.239,0,.4-.12.4-.359A.4.4,0,0,0,236.838,282.8Z" transform="translate(-224.234 -112.497)" fill="#228fe0"/>
      <path id="Path_162" data-name="Path 162" d="M130.583,262.195V260.4h-1.675a1.309,1.309,0,0,0-.838.239V260.4h-1.835a1.266,1.266,0,0,0-.8.239V260.4h-3.231v.239a1.542,1.542,0,0,0-.877-.239h-2.154v.239a1.513,1.513,0,0,0-.917-.239h-2.393l-.558.6-.518-.6H111.2v3.909h3.51l.558-.6.518.6h2.154v-.917h.279a2.426,2.426,0,0,0,.917-.12v1.077h1.795v-1.037h.08c.12,0,.12,0,.12.12v.917h5.424a1.564,1.564,0,0,0,.917-.239v.239h1.715a1.791,1.791,0,0,0,.957-.2h0a1.358,1.358,0,0,0,.638-1.2A1.527,1.527,0,0,0,130.583,262.195Zm-12.364.638h-.8v.957h-1.276l-.8-.917-.838.917h-2.632v-2.832h2.672l.8.917.838-.917H118.3c.518,0,1.117.16,1.117.917C119.376,262.673,118.818,262.833,118.219,262.833Zm3.988-.16a.9.9,0,0,1,.12.518v.558h-.678v-.359a.89.89,0,0,0-.12-.558c-.08-.12-.239-.12-.479-.12h-.718v1.037h-.678v-2.832h1.516a1.605,1.605,0,0,1,.8.12.705.705,0,0,1,.359.638.794.794,0,0,1-.479.758A.682.682,0,0,1,122.208,262.673Zm2.752-1.157H123.4v.518h1.516v.558H123.4v.558h1.555v.6h-2.233v-2.832h2.233Zm1.675,2.233h-1.276v-.6h1.276a.337.337,0,0,0,.279-.08.289.289,0,0,0,0-.4.337.337,0,0,0-.239-.08c-.638-.04-1.4,0-1.4-.877,0-.4.239-.838.957-.838h1.316v.678h-1.236a.591.591,0,0,0-.279.04c-.08.04-.08.12-.08.2,0,.12.08.16.16.2a.506.506,0,0,0,.239.04h.359a1.015,1.015,0,0,1,.758.239.825.825,0,0,1,.2.6C127.672,263.471,127.313,263.75,126.635,263.75Zm3.43-.279a1.163,1.163,0,0,1-.838.279h-1.276v-.6h1.276a.336.336,0,0,0,.279-.08.289.289,0,0,0,0-.4.337.337,0,0,0-.239-.08c-.638-.04-1.4,0-1.4-.877,0-.4.239-.838.957-.838h1.316v.678h-1.2a.591.591,0,0,0-.279.04c-.08.04-.08.12-.08.2,0,.12.04.16.16.2a.506.506,0,0,0,.239.04h.359a1.015,1.015,0,0,1,.758.239.039.039,0,0,1,.04.04.916.916,0,0,1,.16.558A.812.812,0,0,1,130.065,263.471Z" transform="translate(-105.656 -91.214)" fill="#0571c1"/>
      <path id="SVGCleanerId_1" d="M296.317,283.64a.778.778,0,0,0-.319-.04h-.8v.638h.8a.777.777,0,0,0,.319-.04.31.31,0,0,0,.12-.279A.222.222,0,0,0,296.317,283.64Z" transform="translate(-280.483 -113.257)" fill="#228fe0"/>
      <g id="Group_94" data-name="Group 94" transform="translate(10.051 165.437)">
        <path id="Path_163" data-name="Path 163" d="M240.317,187.64a.777.777,0,0,0-.319-.04h-.8v.638h.8a.778.778,0,0,0,.319-.04.311.311,0,0,0,.12-.279A.222.222,0,0,0,240.317,187.64Z" transform="translate(-237.326 -187.48)" fill="#228fe0"/>
        <path id="Path_164" data-name="Path 164" d="M358.4,186.317h.917l-.439-1.117Z" transform="translate(-350.583 -185.2)" fill="#228fe0"/>
        <path id="Path_165" data-name="Path 165" d="M202.637,279.473V277.2l-1.037,1.117Z" transform="translate(-201.6 -272.613)" fill="#228fe0"/>
      </g>
      <g id="Group_95" data-name="Group 95" transform="translate(11.766 170.303)">
        <path id="SVGCleanerId_0_1_" d="M236.838,282.8H236v.718h.877c.239,0,.4-.12.4-.359A.4.4,0,0,0,236.838,282.8Z" transform="translate(-236 -282.8)" fill="#228fe0"/>
      </g>
      <g id="Group_96" data-name="Group 96" transform="translate(14.717 170.343)">
        <path id="SVGCleanerId_1_1_" d="M296.317,283.64a.778.778,0,0,0-.319-.04h-.8v.638h.8a.777.777,0,0,0,.319-.04.31.31,0,0,0,.12-.279A.222.222,0,0,0,296.317,283.64Z" transform="translate(-295.2 -283.6)" fill="#228fe0"/>
      </g>
      <g id="Group_97" data-name="Group 97" transform="translate(0 164.4)">
        <path id="Path_166" data-name="Path 166" d="M117.98,263.67l-.558-.6v.678h-1.316l-.8-.917-.877.917H111.8v-2.792h2.672l.838.917.4-.479-1-1H111.2v3.909h3.51l.6-.6.518.6h2.154Z" transform="translate(-105.656 -255.614)" fill="#2fabf7"/>
        <path id="Path_167" data-name="Path 167" d="M8.176,168.309l-.518-.558H7.418v-.239l-.6-.6-.4.838H5.863l-.957-2.194v2.194H3.55l-.279-.6H1.914l-.279.6H.917l1.2-2.792h1l1.117,2.672v-2.672h.6l-.558-.558h-.6v.479l-.2-.479H1.715l-.8,1.875L0,168.309H2.074l.239-.6h.558l.279.6H5.384v-.479l.2.479H6.74l.2-.479v.479Z" transform="translate(0 -164.4)" fill="#2fabf7"/>
        <path id="Path_168" data-name="Path 168" d="M115.038,193.838l-.638-.638.479,1.037Z" transform="translate(-108.697 -191.764)" fill="#2fabf7"/>
      </g>
      <g id="Group_98" data-name="Group 98" transform="translate(3.948 164.44)">
        <path id="Path_169" data-name="Path 169" d="M190.194,261.829a1.459,1.459,0,0,0,.638-1.077l-.558-.558a1.18,1.18,0,0,1,.08.4.812.812,0,0,1-.239.6,1.163,1.163,0,0,1-.838.279H188v-.6h1.276a.337.337,0,0,0,.279-.08.289.289,0,0,0,0-.4.337.337,0,0,0-.239-.08c-.638-.04-1.4,0-1.4-.877,0-.4.239-.758.838-.838l-.439-.439c-.08.04-.12.08-.16.08V258h-1.835a1.266,1.266,0,0,0-.8.239V258h-3.27v.239a1.542,1.542,0,0,0-.877-.239h-2.154v.239a1.514,1.514,0,0,0-.917-.239h-2.393l-.558.6-.518-.6H174.4l1.2,1.2.6-.638h2.114c.518,0,1.117.16,1.117.917,0,.8-.558.957-1.157.957h-.8v.6l.6.6v-.6h.2a2.426,2.426,0,0,0,.917-.12v1.077h1.795v-1.037h.08c.12,0,.12,0,.12.12v.917H186.6a1.564,1.564,0,0,0,.917-.239v.239h1.715a1.582,1.582,0,0,0,.957-.16Zm-7.937-1.436a.905.905,0,0,1,.12.518v.558H181.7v-.359a.89.89,0,0,0-.12-.558c-.08-.12-.239-.12-.479-.12h-.718v1.037H179.7v-2.832h1.516a1.606,1.606,0,0,1,.8.12.705.705,0,0,1,.359.638.794.794,0,0,1-.479.758A.682.682,0,0,1,182.257,260.393Zm2.752-1.157h-1.555v.518h1.516v.558h-1.516v.558h1.555v.6h-2.233v-2.832h2.233Zm1.675,2.233h-1.276v-.6h1.276a.337.337,0,0,0,.279-.08.289.289,0,0,0,0-.4.337.337,0,0,0-.239-.08c-.638-.04-1.4,0-1.4-.877,0-.4.239-.838.957-.838H187.6v.678h-1.236a.592.592,0,0,0-.279.04c-.08.04-.08.12-.08.2,0,.12.08.16.16.2a.506.506,0,0,0,.239.04h.359a1.015,1.015,0,0,1,.758.239.826.826,0,0,1,.2.6C187.721,261.191,187.362,261.47,186.684,261.47Z" transform="translate(-169.654 -253.374)" fill="#228fe0"/>
        <path id="Path_170" data-name="Path 170" d="M459.2,283.839c0,.12.04.16.16.2a.506.506,0,0,0,.239.04h.359a1.158,1.158,0,0,1,.558.12l-.6-.6h-.359a.592.592,0,0,0-.279.04A.3.3,0,0,0,459.2,283.839Z" transform="translate(-440.256 -277.697)" fill="#228fe0"/>
        <path id="Path_171" data-name="Path 171" d="M431.2,240.4l.08.12h.04Z" transform="translate(-413.651 -236.651)" fill="#228fe0"/>
        <path id="Path_172" data-name="Path 172" d="M387.2,196.4l.678,1.635v-.957Z" transform="translate(-371.845 -194.845)" fill="#228fe0"/>
        <path id="Path_173" data-name="Path 173" d="M87.735,168.072h.08c.08,0,.08,0,.08.12v.877h2.872v-.239a2.389,2.389,0,0,0,1.077.239h1.2l.239-.638h.558l.239.638H96.39v-.4l-.558-.558v.439H94.475l-.2-.638h-1.4l-.239.638h-.758a1.2,1.2,0,0,1-1.316-1.4,1.635,1.635,0,0,1,.359-1.117,1.257,1.257,0,0,1,1-.319h.638v.6h-.638a.735.735,0,0,0-.518.16.936.936,0,0,0-.2.638.868.868,0,0,0,.2.678.636.636,0,0,0,.479.16h.279l.917-2.194h.4l-.558-.558H91.883a2.428,2.428,0,0,0-1.117.239V165.2H89.011v.239a1.15,1.15,0,0,0-.758-.239H81.832l-.439,1-.439-1H79.2l.558.558h.8l.678,1.476.239.239.718-1.755h1.117v2.832H82.63v-2.194l-.678,1.6,1.157,1.157H87.7Zm1.835-2.353h.678v2.832H89.57Zm-3.51.6H84.5v.518H86.02v.558H84.5v.558H86.06v.6H83.826v-2.832H86.06Zm1.117,2.194H86.5v-2.832h1.516a1.529,1.529,0,0,1,.8.12.68.68,0,0,1,.319.638.794.794,0,0,1-.479.758.522.522,0,0,1,.319.239,1,1,0,0,1,.12.518v.558h-.678v-.359a.95.95,0,0,0-.12-.558c-.04-.08-.16-.08-.4-.08h-.718v1Z" transform="translate(-79.2 -165.2)" fill="#228fe0"/>
      </g>
    </g>
  </g>
</svg>
