<svg xmlns="http://www.w3.org/2000/svg" width="9.61" height="13.709" viewBox="0 0 9.61 13.709">
  <g id="noun_Map_1694983" transform="translate(-12.475 -5)">
    <g id="Group_89" data-name="Group 89" transform="translate(12.475 5)">
      <g id="Group_88" data-name="Group 88">
        <path id="Path_122" data-name="Path 122" d="M17.279,5a4.809,4.809,0,0,0-4.8,4.8c0,2.564,4.4,8.541,4.584,8.793a.269.269,0,0,0,.219.112A.274.274,0,0,0,17.5,18.6c.186-.252,4.584-6.229,4.584-8.793A4.81,4.81,0,0,0,17.279,5Zm0,7.129A2.324,2.324,0,1,1,19.6,9.8,2.326,2.326,0,0,1,17.279,12.129Z" transform="translate(-12.475 -5)" fill="#343434"/>
      </g>
    </g>
  </g>
</svg>
