<svg id="Layer_1" data-name="Layer 1" 
    xmlns="http://www.w3.org/2000/svg" viewBox="0 0 14.29 16">
    <defs>
        <style>.cls-1{fill:#FEDB59;fill-rule:evenodd;}</style>
    </defs>
    <path id="Path_54" data-name="Path 54" class="cls-1" d="M26.42,15.45a.23.23,0,0,0,.26.2h13.4c.22,0,.48.06.57-.1a.36.36,0,0,0,.05-.21V.35c0-.36.07-.68-.27-.68-1.52,0-13.73,0-13.83,0s-.18.13-.18.3v.5c0,1.44,0,14.86,0,15M40.24.17a1.7,1.7,0,0,1,0,.46V2c0,1,0,13,0,13.11s-11,0-13.3,0h-.09V.17Z" transform="translate(-26.41 0.34)"/>
    <path id="Path_55" data-name="Path 55" class="cls-1" d="M32.24,12.65H35.1a.73.73,0,0,0,.73-.73V10.74H31.5c0,.23,0,1.17,0,1.31a.73.73,0,0,0,.72.6m-.36-1.16a.1.1,0,0,1,.12,0v0a1.34,1.34,0,0,1,0,.2c0,.38.26.37.48.37.06,0,.11,0,.13.07.07.21-.38.14-.44.12a.51.51,0,0,1-.25-.16.66.66,0,0,1-.13-.51c0-.08,0-.11.07-.15Z" transform="translate(-26.41 0.34)"/>
    <path id="Path_56" data-name="Path 56" class="cls-1" d="M31.5,10.53h4.33V9H31.5Zm.42-1.35c0-.18.2-.19.2,0V10c0,.2-.2.19-.2,0Z" transform="translate(-26.41 0.34)"/>
    <path id="Path_57" data-name="Path 57" class="cls-1" d="M32.42,2.69c-.12,0-.09.16-.09.33,0,.39-.06.3,1,.3.18,0,1.6,0,1.65,0S35,3.09,35,3c0-.39.05-.3-.94-.3-.2,0-1.58,0-1.65,0" transform="translate(-26.41 0.34)"/>
    <path id="Path_58" data-name="Path 58" class="cls-1" d="M32.78,4.82a.31.31,0,0,0-.24.37l0,.07c.09.2.29.18.55.18s1.34,0,1.44,0a.32.32,0,0,0,.24-.38l0-.07c-.1-.2-.3-.17-.56-.17s-1.33,0-1.43,0" transform="translate(-26.41 0.34)"/>
    <path id="Path_59" data-name="Path 59" class="cls-1" d="M35,3.11h.56A.66.66,0,0,1,36,3.2c.28.19.23.47.23.88V6.29h.21V3.66a.75.75,0,0,0-.7-.77H35Z" transform="translate(-26.41 0.34)"/>
    <path id="Path_60" data-name="Path 60" class="cls-1" d="M30.9,6.29h.2c0-.27,0-2.61,0-2.75a.49.49,0,0,1,.22-.34.66.66,0,0,1,.45-.1h.56V2.89a2.45,2.45,0,0,0-1.1.11c-.35.23-.34.53-.34.87V6.29" transform="translate(-26.41 0.34)"/>
    <path id="Path_61" data-name="Path 61" class="cls-1" d="M35.8,9.25h.41v1.91H35.8v.21h.41c0,.08,0,.73,0,.77a.09.09,0,0,0,.13.07l0,0a5.76,5.76,0,0,0,0-1V9H35.8Z" transform="translate(-26.41 0.34)"/>
    <path id="Path_62" data-name="Path 62" class="cls-1" d="M30.92,12.08c0,.2.21.19.21,0v-.71h.41v-.21h-.41V9.25h.41v-.2h-.62Z" transform="translate(-26.41 0.34)"/>
    <path id="Path_63" data-name="Path 63" class="cls-1" d="M37.83,8.21H38V7.43l.22.79h.17V7.1h-.16v.64c0-.09-.13-.48-.18-.64h-.22Z" transform="translate(-26.41 0.34)"/>
    <path id="Path_64" data-name="Path 64" class="cls-1" d="M34.35,8.22h.15V7.46c.07.06.18.74.24.76h.16V7.1h-.15v.65l-.19-.65h-.21Z" transform="translate(-26.41 0.34)"/>
    <path id="Path_65" data-name="Path 65" class="cls-1" d="M30.28,8.21h.31c.33,0,.24-.46.19-.52a.3.3,0,0,0-.08-.08.22.22,0,0,0,.1-.18.39.39,0,0,0,0-.26c-.07-.1-.34-.1-.48-.07Zm.18-1c.14,0,.17,0,.17.16s0,.14-.17.14Zm0,.46c.14,0,.19,0,.19.16s0,.18-.19.18V7.72Z" transform="translate(-26.41 0.34)"/>
    <path id="Path_66" data-name="Path 66" class="cls-1" d="M31.06,8.22c.2,0,.43,0,.51-.12a.67.67,0,0,0,0-.28.26.26,0,0,0-.12-.2.21.21,0,0,0,.1-.17.52.52,0,0,0,0-.25c-.09-.13-.31-.1-.49-.1Zm.18-1c.14,0,.17,0,.17.16s-.05.14-.18.14Zm0,.46c.16,0,.19,0,.19.16s0,.18-.19.18V7.72Z" transform="translate(-26.41 0.34)"/>
    <path id="Path_67" data-name="Path 67" class="cls-1" d="M28.72,8.22c.56,0,.54,0,.54-.56s0-.56-.53-.56Zm.18-1c.11,0,.18,0,.19.11V8c0,.11-.08.11-.19.09Z" transform="translate(-26.41 0.34)"/>
    <path id="Path_68" data-name="Path 68" class="cls-1" d="M37.26,7.09c-.27.06-.2.37-.2.64a.82.82,0,0,0,0,.38.25.25,0,0,0,.3.11c.26,0,.2-.37.2-.63a.78.78,0,0,0,0-.38.28.28,0,0,0-.29-.12m0,.3c0-.08,0-.15.1-.14s.08.07.08.14v.54c0,.13,0,.16-.16.12a4.61,4.61,0,0,1,0-.66Z" transform="translate(-26.41 0.34)"/>
    <path id="Path_69" data-name="Path 69" class="cls-1" d="M34.1,7.1h-.16c0,.19,0,.57,0,.79s0,.18-.09.18-.09-.24-.09-.44a4.69,4.69,0,0,0,0-.53h-.17c0,.21,0,.48,0,.69s0,.44.25.44.27-.19.27-.43,0-.48,0-.7" transform="translate(-26.41 0.34)"/>
    <path id="Path_70" data-name="Path 70" class="cls-1" d="M31.79,8.22H32c0-.24,0-.21.22-.21,0,0,0,.05,0,.09a.5.5,0,0,0,0,.12h.17L32.22,7.1c-.31,0-.26,0-.27.11s0,.22-.05.34-.09.45-.11.67M32,7.86a3.35,3.35,0,0,1,.08-.54l.08.54Z" transform="translate(-26.41 0.34)"/>
    <path id="Path_71" data-name="Path 71" class="cls-1" d="M29.46,8.22h.16l0-.2h.21l0,.19h.17L29.89,7.1h-.25Zm.22-.36a2.6,2.6,0,0,1,0-.26.59.59,0,0,0,0-.13l0-.11h0a3,3,0,0,1,.08.51Z" transform="translate(-26.41 0.34)"/>
    <path id="Path_72" data-name="Path 72" class="cls-1" d="M35.67,7.8H35.5c0,.1,0,.33-.13.26s0-.28,0-.38a1.29,1.29,0,0,1,0-.4.09.09,0,0,1,.13,0h0s0,.14,0,.2h.17a.54.54,0,0,0-.06-.31.29.29,0,0,0-.29-.07c-.23.06-.18.33-.18.57s0,.51.2.55.33-.25.33-.42" transform="translate(-26.41 0.34)"/>
    <path id="Path_73" data-name="Path 73" class="cls-1" d="M35.86,7.26H36v1h.17v-1h.18V7.1h-.54Z" transform="translate(-26.41 0.34)"/>
    <path id="Path_74" data-name="Path 74" class="cls-1" d="M33,8.06v.15c.3,0,.34-.12.34-.38s0-.51,0-.73h-.17c0,.18,0,.61,0,.84s0,.11-.16.12" transform="translate(-26.41 0.34)"/>
    <path id="Path_75" data-name="Path 75" class="cls-1" d="M36.63,8.22h.17V7.1h-.17Z" transform="translate(-26.41 0.34)"/>
    <path id="Path_76" data-name="Path 76" class="cls-1" d="M31.55,6.51h4.32V5.84H31.55Zm.41-.6c0-.09.21-.09.21,0v.34c0,.09-.21.09-.21,0Z" transform="translate(-26.41 0.34)"/>
</svg>