<svg xmlns="http://www.w3.org/2000/svg" width="33.828" height="33.828" viewBox="0 0 33.828 33.828">
  <g id="close" transform="translate(218 41)">
    <g id="Group_88" data-name="Group 88" transform="translate(-218 -41)">
      <path id="Path_135" data-name="Path 135" d="M22.914,958.362a16.914,16.914,0,1,0,16.914,16.914A16.926,16.926,0,0,0,22.914,958.362Zm0,1.538A15.376,15.376,0,1,1,7.538,975.276,15.363,15.363,0,0,1,22.914,959.9Z" transform="translate(-6 -958.362)" fill="#fff" fill-rule="evenodd"/>
      <path id="Path_136" data-name="Path 136" d="M33.653,985.351a.769.769,0,0,0-.456,1.322L38.41,991.9,33.2,997.111A.773.773,0,1,0,34.29,998.2l5.226-5.226,5.214,5.226a.773.773,0,1,0,1.093-1.093L40.6,991.9l5.226-5.226a.773.773,0,1,0-1.093-1.093l-5.214,5.214-5.226-5.214a.769.769,0,0,0-.553-.228A.743.743,0,0,0,33.653,985.351Z" transform="translate(-22.595 -974.975)" fill="#fff" fill-rule="evenodd"/>
    </g>
  </g>
</svg>
