<svg id="download" xmlns="http://www.w3.org/2000/svg" width="26.218" height="25.855" viewBox="0 0 26.218 25.855">
  <path id="Path_217" data-name="Path 217" d="M29.6,87.365H6.284a1.451,1.451,0,1,1,0-2.9H29.6a1.451,1.451,0,1,1,0,2.9Z" transform="translate(-4.833 -61.51)" fill="#707070"/>
  <path id="Path_218" data-name="Path 218" d="M37.767,16.364a1.451,1.451,0,0,0-2.052,0l-4.24,4.24V6.828a1.451,1.451,0,0,0-2.9,0V20.6l-4.24-4.24a1.451,1.451,0,1,0-2.052,2.052L29,25.133a1.468,1.468,0,0,0,.219.18c.02.013.042.021.062.034a1.393,1.393,0,0,0,.187.1c.029.012.06.018.089.028a1.438,1.438,0,0,0,.181.055,1.455,1.455,0,0,0,.287.029,1.433,1.433,0,0,0,.287-.029,1.406,1.406,0,0,0,.173-.053c.032-.011.066-.017.1-.03a1.441,1.441,0,0,0,.182-.1c.022-.013.046-.022.066-.036a1.486,1.486,0,0,0,.221-.181l6.716-6.716A1.451,1.451,0,0,0,37.767,16.364Z" transform="translate(-16.915 -5.377)" fill="#707070"/>
</svg>
