<svg id="Group_83" data-name="Group 83" xmlns="http://www.w3.org/2000/svg" width="150" height="149.542" viewBox="0 0 150 149.542">
  <rect id="Rectangle_44" data-name="Rectangle 44" width="150" height="149.542" transform="translate(0)" fill="#fedb59"/>
  <path id="Path_54" data-name="Path 54" d="M545.576,349.36c.2,1.1,1.053,1.537,2.276,1.538l114.313,0c1.866,0,4.045.411,4.892-.787a2.674,2.674,0,0,0,.361-1.556l0-114.314c0-2.765.652-5.22-2.316-5.224-12.9-.017-117.134-.117-118,.041-1.086.2-1.563,1.006-1.566,2.25,0,1.28,0,2.562,0,3.843,0,10.948-.129,113.313.038,114.211M663.559,232.84c.3.489.091,2.767.091,3.522v10.713c0,7.45.123,98.966-.033,100-.63.284-93.567.043-113.544.1l-.745-.118.019-114.233Z" transform="translate(-531.348 -215.293)" fill="#545454" fill-rule="evenodd"/>
  <path id="Path_55" data-name="Path 55" d="M595.676,331.417h23.752a6.089,6.089,0,0,0,6.1-6.341V315.56H589.552c0,1.884-.127,9.693.108,10.89a6.071,6.071,0,0,0,6.016,4.966m-3.006-9.59a.776.776,0,0,1,1.112.486,8.46,8.46,0,0,1,.05,1.651c0,3.138,2.185,3.032,3.972,3.049.556.006.948.113,1.112.587.616,1.767-3.124,1.15-3.639,1.007a4.28,4.28,0,0,1-2.092-1.345c-1.152-1.308-1.064-2.524-1.066-4.211C592.119,322.344,592.144,322.093,592.67,321.827Z" transform="translate(-531.348 -215.293)" fill="#545454" fill-rule="evenodd"/>
  <path id="Path_56" data-name="Path 56" d="M589.552,313.8h35.94l.036-12.4H594.45l-1.2.017-3.7-.017Zm3.428-11.166c0-1.552,1.711-1.617,1.711,0v6.468c0,1.626-1.711,1.564-1.711,0Z" transform="translate(-531.348 -215.293)" fill="#545454" fill-rule="evenodd"/>
  <path id="Path_57" data-name="Path 57" d="M597.118,248.639c-.977.236-.714,1.38-.714,2.756,0,3.285-.51,2.493,7.863,2.493,1.563,0,13.309.093,13.781-.041.927-.264.627-1.845.627-2.756,0-3.3.433-2.487-7.839-2.487-1.657,0-13.13-.107-13.718.035" transform="translate(-531.348 -215.293)" fill="#545454" fill-rule="evenodd"/>
  <path id="Path_58" data-name="Path 58" d="M600.151,266.329a2.6,2.6,0,0,0-1.773,3.687c.8,1.677,2.4,1.506,4.575,1.506,1.713,0,11.122.12,11.98-.068a2.64,2.64,0,0,0,1.748-3.766c-.817-1.647-2.452-1.45-4.632-1.45-1.644,0-11.1-.118-11.9.091" transform="translate(-531.348 -215.293)" fill="#545454" fill-rule="evenodd"/>
  <path id="Path_59" data-name="Path 59" d="M620.386,252.11h4.6c1.659,0,2.571-.065,3.777.763,2.348,1.614,1.9,3.9,1.9,7.315v18.39l1.715.024V256.751a6.108,6.108,0,0,0-6.181-6.4h-5.813Z" transform="translate(-531.348 -215.293)" fill="#545454" fill-rule="evenodd"/>
  <path id="Path_60" data-name="Path 60" d="M582.7,278.6l1.715-.015c0-2.212-.121-21.686.06-22.832a4.278,4.278,0,0,1,1.8-2.848c1.3-.854,2.027-.8,3.741-.8h4.677v-1.761c-2.9,0-6.964-.47-9.139.931-2.936,1.891-2.854,4.383-2.854,7.19V278.6" transform="translate(-531.348 -215.293)" fill="#545454" fill-rule="evenodd"/>
  <path id="Path_61" data-name="Path 61" d="M627.247,303.182l3.419.017v15.852l-3.4,0-.029,1.738,3.427.028c0,.637-.064,6.052.044,6.421a.864.864,0,0,0,1.446.354c.451-.478.224-7.355.224-8.584v-17.6l-5.131.044Z" transform="translate(-531.348 -215.293)" fill="#545454" fill-rule="evenodd"/>
  <path id="Path_62" data-name="Path 62" d="M582.7,326.693c0,1.642,1.715,1.559,1.715,0v-5.875l3.419-.007,0-1.728-3.421-.035V303.2l3.4-.005.024-1.709-5.143-.078Z" transform="translate(-531.348 -215.293)" fill="#545454" fill-rule="evenodd"/>
  <path id="Path_63" data-name="Path 63" d="M645.725,294.575l1.3.022.011-6.546,1.812,6.538,1.491,0,.005-9.264-1.279-.006-.021,5.287c-.4-.71-1.068-3.992-1.511-5.288l-1.794,0Z" transform="translate(-531.348 -215.293)" fill="#545454" fill-rule="evenodd"/>
  <path id="Path_64" data-name="Path 64" d="M613.931,294.594l1.307-.015,0-6.3c.513.483,1.485,6.19,1.962,6.317h1.34l.008-9.274h-1.267l-.032,5.4-1.5-5.381-1.795-.019Z" transform="translate(-531.348 -215.293)" fill="#545454" fill-rule="evenodd"/>
  <path id="Path_65" data-name="Path 65" d="M576.821,294.55a16.661,16.661,0,0,0,2.582.03c2.743-.221,1.943-3.761,1.592-4.3a2.445,2.445,0,0,0-.656-.632,1.943,1.943,0,0,0,.823-1.509,3.42,3.42,0,0,0-.349-2.126c-.6-.857-2.846-.847-3.981-.655Zm1.5-7.9c1.167,0,1.429.011,1.411,1.281-.016,1.128-.363,1.162-1.442,1.162Zm-.038,3.772c1.214,0,1.587,0,1.587,1.347,0,1.617-.138,1.5-1.575,1.5l-.012-.39Z" transform="translate(-531.348 -215.293)" fill="#545454" fill-rule="evenodd"/>
  <path id="Path_66" data-name="Path 66" d="M583.908,294.594c1.648,0,3.611.3,4.239-.953a4.7,4.7,0,0,0,.244-2.377c-.1-1-.4-1.113-.966-1.617a1.868,1.868,0,0,0,.82-1.457,3.434,3.434,0,0,0-.274-2.059c-.706-1.1-2.578-.811-4.034-.811Zm1.494-7.944c1.182,0,1.432-.019,1.414,1.281-.015,1.121-.367,1.162-1.441,1.162Zm-.034,3.773c1.288,0,1.587.005,1.587,1.346,0,1.635-.131,1.5-1.577,1.5l-.01-.39Z" transform="translate(-531.348 -215.293)" fill="#545454" fill-rule="evenodd"/>
  <path id="Path_67" data-name="Path 67" d="M562.621,294.594c4.618,0,4.482-.057,4.482-4.644,0-4.623.174-4.63-4.461-4.63Zm1.48-7.919c.924-.11,1.478-.092,1.539.847l-.005,4.95c-.08.879-.666.894-1.554.765Z" transform="translate(-531.348 -215.293)" fill="#545454" fill-rule="evenodd"/>
  <path id="Path_68" data-name="Path 68" d="M640.363,285.265c-2.232.432-1.7,3.006-1.7,5.291a7.4,7.4,0,0,0,.287,3.115,2.125,2.125,0,0,0,2.475.981c2.178-.4,1.665-3.134,1.665-5.308,0-.981.156-2.378-.3-3.15a2.244,2.244,0,0,0-2.426-.929m-.242,2.461c0-.7.08-1.232.818-1.176.633.049.692.572.692,1.176v4.447c0,1.112-.352,1.369-1.328,1.058C639.983,292.258,640.121,289.018,640.121,287.726Z" transform="translate(-531.348 -215.293)" fill="#545454" fill-rule="evenodd"/>
  <path id="Path_69" data-name="Path 69" d="M611.222,285.32l-1.348.01c-.087,1.584-.02,4.718-.011,6.541,0,.692.045,1.487-.746,1.5-1.091.018-.764-1.994-.764-3.622,0-1.312.108-3.184-.029-4.428h-1.412c-.132,1.746-.019,3.946-.019,5.742,0,1.957-.039,3.618,2.123,3.651,2.192.033,2.227-1.58,2.226-3.55,0-1.827.116-4.067-.02-5.843" transform="translate(-531.348 -215.293)" fill="#545454" fill-rule="evenodd"/>
  <path id="Path_70" data-name="Path 70" d="M590.63,294.591l1.323,0c.3-2-.138-1.678,1.8-1.678.347,0,.3.348.354.742.042.313.085.619.134.936H595.7l-1.472-9.256c-2.634-.2-2.163.075-2.285.9-.139.934-.3,1.85-.441,2.78-.276,1.795-.69,3.78-.876,5.577m1.785-2.937a23.477,23.477,0,0,1,.71-4.48l.645,4.48Z" transform="translate(-531.348 -215.293)" fill="#545454" fill-rule="evenodd"/>
  <path id="Path_71" data-name="Path 71" d="M569.336,294.591l1.345-.006.255-1.666h1.753l.278,1.651,1.458.021-1.47-9.273-2.119,0Zm1.8-2.942c.05-.7.2-1.466.307-2.178.051-.336.112-.725.159-1.061l.189-.94a.174.174,0,0,1,.034-.082,27.953,27.953,0,0,1,.675,4.26Z" transform="translate(-531.348 -215.293)" fill="#545454" fill-rule="evenodd"/>
  <path id="Path_72" data-name="Path 72" d="M625.537,291.135h-1.38c0,.859.2,2.695-1.1,2.161-.707-.291-.413-2.306-.413-3.144,0-.674-.148-2.972.18-3.375a.781.781,0,0,1,1.153.037c.268.352.176,1.176.176,1.634h1.381a4.11,4.11,0,0,0-.507-2.584,2.433,2.433,0,0,0-2.372-.569c-1.886.477-1.469,2.748-1.469,4.756,0,1.949-.39,4.226,1.611,4.6,2.928.546,2.737-2.093,2.737-3.515" transform="translate(-531.348 -215.293)" fill="#545454" fill-rule="evenodd"/>
  <path id="Path_73" data-name="Path 73" d="M627.7,286.647h1.5l.033,7.947,1.453,0,.007-7.919,1.522-.035-.012-1.322h-4.472Z" transform="translate(-531.348 -215.293)" fill="#545454" fill-rule="evenodd"/>
  <path id="Path_74" data-name="Path 74" d="M601.462,293.3v1.274c2.526.356,2.8-1.02,2.8-3.209,0-1.888.12-4.206-.02-6.04l-1.41-.006c-.173,1.5.023,5.038-.028,6.956-.027,1.009-.447.939-1.343,1.025" transform="translate(-531.348 -215.293)" fill="#545454" fill-rule="evenodd"/>
  <path id="Path_75" data-name="Path 75" d="M634.555,294.6h1.456l0-9.275h-1.43Z" transform="translate(-531.348 -215.293)" fill="#545454" fill-rule="evenodd"/>
  <path id="Path_76" data-name="Path 76" d="M589.964,280.376H625.9l.036-5.536H594.862l-1.2.008-3.7-.008Zm3.427-4.986c0-.693,1.712-.722,1.712,0v2.888c0,.726-1.712.7-1.712,0Z" transform="translate(-531.348 -215.293)" fill="#545454" fill-rule="evenodd"/>
</svg>
