<svg xmlns="http://www.w3.org/2000/svg" width="11.446" height="11.434" viewBox="0 0 11.446 11.434">
  <path id="Path_228" data-name="Path 228" d="M-936.075,964.534a1.173,1.173,0,0,1-1.048.53,7.783,7.783,0,0,1-1.338-.181,11.031,11.031,0,0,1-4.844-2.928,11.031,11.031,0,0,1-2.928-4.844,9.01,9.01,0,0,1-.181-1.326,1.156,1.156,0,0,1,.518-1.036l1.482-.988a.766.766,0,0,1,1.109.289l1.2,2.326a.78.78,0,0,1-.2.964l-1.085.844a8.433,8.433,0,0,0,1.639,2.241,8.627,8.627,0,0,0,2.205,1.615l.856-1.1a.765.765,0,0,1,.964-.2l2.338,1.205a.766.766,0,0,1,.289,1.109Z" transform="translate(946.417 -953.632)"/>
</svg>
