<svg xmlns="http://www.w3.org/2000/svg" width="35" height="20" viewBox="0 0 35 20">
  <g id="Group_105" data-name="Group 105" transform="translate(-848 -858)">
    <g id="Rectangle_100" data-name="Rectangle 100" transform="translate(848 858)" fill="#fff" stroke="#aaa" stroke-width="1">
      <rect width="35" height="20" rx="2" stroke="none"/>
      <rect x="0.5" y="0.5" width="34" height="19" rx="1.5" fill="none"/>
    </g>
    <g id="visa" transform="translate(854 689.432)">
      <path id="Path_136" data-name="Path 136" d="M184.8,186.859l1.148-6.459h1.794l-1.112,6.459Z" transform="translate(-176.511 -4.585)" fill="#3c58bf"/>
      <path id="Path_137" data-name="Path 137" d="M184.8,186.859l1.471-6.459h1.471l-1.112,6.459Z" transform="translate(-176.511 -4.585)" fill="#293688"/>
      <path id="Path_138" data-name="Path 138" d="M253.49,175.887a4.551,4.551,0,0,0-1.651-.287c-1.794,0-3.086.9-3.086,2.189,0,.969.9,1.471,1.615,1.794s.933.538.933.825c0,.431-.574.646-1.076.646a3.9,3.9,0,0,1-1.722-.359l-.251-.108L248,182.059a5.818,5.818,0,0,0,2.045.359c1.9,0,3.158-.9,3.158-2.261,0-.754-.466-1.328-1.543-1.794-.646-.323-1.041-.5-1.041-.825,0-.287.323-.574,1.041-.574a3.291,3.291,0,0,1,1.364.251l.179.072.287-1.4Z" transform="translate(-236.876)" fill="#3c58bf"/>
      <path id="Path_139" data-name="Path 139" d="M253.49,175.887a4.551,4.551,0,0,0-1.651-.287c-1.794,0-2.763.9-2.763,2.189a1.876,1.876,0,0,0,1.292,1.794c.718.323.933.538.933.825,0,.431-.574.646-1.076.646a3.9,3.9,0,0,1-1.722-.359l-.251-.108L248,182.059a5.818,5.818,0,0,0,2.045.359c1.9,0,3.158-.9,3.158-2.261,0-.754-.466-1.328-1.543-1.794-.646-.323-1.041-.5-1.041-.825,0-.287.323-.574,1.041-.574a3.291,3.291,0,0,1,1.364.251l.179.072.287-1.4Z" transform="translate(-236.876)" fill="#293688"/>
      <path id="Path_140" data-name="Path 140" d="M362.024,180.4c-.431,0-.754.036-.933.466l-2.691,5.992h1.938l.359-1.076h2.3l.215,1.076h1.722l-1.507-6.459Zm-.825,4.306c.108-.323.718-1.9.718-1.9s.143-.395.251-.646l.108.61s.359,1.615.431,1.974H361.2Z" transform="translate(-342.325 -4.585)" fill="#3c58bf"/>
      <path id="Path_141" data-name="Path 141" d="M362.455,180.4c-.431,0-.754.036-.933.466l-3.122,5.992h1.938l.359-1.076h2.3l.215,1.076h1.722l-1.507-6.459Zm-1.256,4.306c.144-.359.718-1.9.718-1.9s.144-.395.251-.646l.108.61s.359,1.615.431,1.974H361.2Z" transform="translate(-342.325 -4.585)" fill="#293688"/>
      <path id="Path_142" data-name="Path 142" d="M53.891,185.685l-.179-.933a5.2,5.2,0,0,0-2.512-2.835l1.615,5.741h1.938l2.907-6.459H55.721Z" transform="translate(-48.903 -5.349)" fill="#3c58bf"/>
      <path id="Path_143" data-name="Path 143" d="M53.891,185.685l-.179-.933a5.2,5.2,0,0,0-2.512-2.835l1.615,5.741h1.938l2.907-6.459H56.08Z" transform="translate(-48.903 -5.349)" fill="#293688"/>
      <path id="Path_144" data-name="Path 144" d="M0,180.4l.323.072a6.052,6.052,0,0,1,4.485,3.517l-.646-3.05c-.108-.431-.431-.538-.825-.538Z" transform="translate(0 -4.585)" fill="#ffbc00"/>
      <path id="Path_145" data-name="Path 145" d="M0,180.4H0c2.3.538,4.2,1.938,4.808,3.552L4.2,181.4a.876.876,0,0,0-.861-.682Z" transform="translate(0 -4.585)" fill="#f7981d"/>
      <path id="Path_146" data-name="Path 146" d="M0,180.4H0c2.3.538,4.2,1.938,4.808,3.552l-.431-1.4a1.265,1.265,0,0,0-.754-1.041Z" transform="translate(0 -4.585)" fill="#ed7c00"/>
      <g id="Group_92" data-name="Group 92" transform="translate(2.332 176.533)">
        <path id="Path_147" data-name="Path 147" d="M56.449,199.988l-1.22-1.22-.574,1.364-.144-.9A5.2,5.2,0,0,0,52,196.4l1.615,5.741h1.938Z" transform="translate(-52 -196.4)" fill="#051244"/>
        <path id="Path_148" data-name="Path 148" d="M186.63,290.779l-1.543-1.579-.287,1.579Z" transform="translate(-178.843 -285.038)" fill="#051244"/>
        <path id="Path_149" data-name="Path 149" d="M251.122,274.8h0c.144.144.215.251.179.395,0,.431-.574.646-1.076.646a3.9,3.9,0,0,1-1.722-.359l-.251-.108L248,276.845a5.818,5.818,0,0,0,2.045.359,3.553,3.553,0,0,0,2.619-.9Z" transform="translate(-239.209 -271.283)" fill="#051244"/>
        <path id="Path_150" data-name="Path 150" d="M364,224.3h1.686l.359-1.076h2.3l.215,1.076h1.722l-.61-2.619-2.153-2.081.108.574s.359,1.615.431,1.974h-1.507c.144-.359.718-1.9.718-1.9s.144-.395.251-.646" transform="translate(-350.006 -218.559)" fill="#051244"/>
      </g>
    </g>
  </g>
</svg>
